<?xml version="1.0" encoding="UTF-8" standalone="no"?>
<!-- Generator: Adobe Illustrator 23.0.1, SVG Export Plug-In . SVG Version: 6.00 Build 0)  -->

<svg
   version="1.1"
   id="Livello_1"
   x="0px"
   y="0px"
   viewBox="0 0 135 40"
   xml:space="preserve"
   sodipodi:docname="play-store-download.svg"
   inkscape:version="1.1 (ce6663b3b7, 2021-05-25)"
   width="135"
   height="40"
   xmlns:inkscape="http://www.inkscape.org/namespaces/inkscape"
   xmlns:sodipodi="http://sodipodi.sourceforge.net/DTD/sodipodi-0.dtd"
   xmlns="http://www.w3.org/2000/svg"
   xmlns:svg="http://www.w3.org/2000/svg"
   xmlns:ns="&amp;ns_sfw;"><defs
   id="defs69" /><sodipodi:namedview
   id="namedview67"
   pagecolor="#ffffff"
   bordercolor="#666666"
   borderopacity="1.0"
   inkscape:pageshadow="2"
   inkscape:pageopacity="0.0"
   inkscape:pagecheckerboard="0"
   showgrid="false"
   showguides="true"
   inkscape:guide-bbox="true"
   inkscape:zoom="3.9383349"
   inkscape:cx="47.862867"
   inkscape:cy="16.37748"
   inkscape:window-width="1848"
   inkscape:window-height="1016"
   inkscape:window-x="72"
   inkscape:window-y="27"
   inkscape:window-maximized="1"
   inkscape:current-layer="Livello_1"
   width="135px" />
<style
   type="text/css"
   id="style2">
	.st0{fill-rule:evenodd;clip-rule:evenodd;}
	.st1{fill-rule:evenodd;clip-rule:evenodd;fill:#A6A6A6;}
	.st2{fill:#FFFFFF;}
	.st3{fill-rule:evenodd;clip-rule:evenodd;fill:#FFFFFF;}
	.st4{fill-rule:evenodd;clip-rule:evenodd;fill:url(#SVGID_1_);}
	.st5{fill-rule:evenodd;clip-rule:evenodd;fill:url(#SVGID_2_);}
	.st6{fill-rule:evenodd;clip-rule:evenodd;fill:url(#SVGID_3_);}
	.st7{fill-rule:evenodd;clip-rule:evenodd;fill:url(#SVGID_4_);}
	.st8{opacity:0.2;fill-rule:evenodd;clip-rule:evenodd;enable-background:new    ;}
	.st9{opacity:0.12;fill-rule:evenodd;clip-rule:evenodd;enable-background:new    ;}
	.st10{opacity:0.25;fill-rule:evenodd;clip-rule:evenodd;fill:#FFFFFF;enable-background:new    ;}
</style>
<metadata
   id="metadata4">
	<ns:sfw>
		<ns:slices />
		<ns:sliceSourceBounds
   bottomLeftOrigin="true"
   height="1604"
   width="5435.8"
   x="-2656.9"
   y="-784" />
	</ns:sfw>
</metadata>




<linearGradient
   id="SVGID_1_"
   gradientUnits="userSpaceOnUse"
   x1="1682.1077"
   y1="1339.4783"
   x2="1624.2924"
   y2="1309.6345"
   gradientTransform="matrix(7.0273236,0,0,-13.61393,-11203.095,18560.524)">
	<stop
   offset="0"
   style="stop-color:#00A0FF"
   id="stop14" />
	<stop
   offset="6.569999e-03"
   style="stop-color:#00A1FF"
   id="stop16" />
	<stop
   offset="0.2601"
   style="stop-color:#00BEFF"
   id="stop18" />
	<stop
   offset="0.5122"
   style="stop-color:#00D2FF"
   id="stop20" />
	<stop
   offset="0.7604"
   style="stop-color:#00DFFF"
   id="stop22" />
	<stop
   offset="1"
   style="stop-color:#00E3FF"
   id="stop24" />
</linearGradient>

<linearGradient
   id="SVGID_2_"
   gradientUnits="userSpaceOnUse"
   x1="1712.6624"
   y1="1274.8376"
   x2="1606.5613"
   y2="1274.8376"
   gradientTransform="matrix(5.5210373,0,0,-4.6486591,-8546.6834,6524.651)">
	<stop
   offset="0"
   style="stop-color:#FFE000"
   id="stop29" />
	<stop
   offset="0.4087"
   style="stop-color:#FFBD00"
   id="stop31" />
	<stop
   offset="0.7754"
   style="stop-color:#FFA500"
   id="stop33" />
	<stop
   offset="1"
   style="stop-color:#FF9C00"
   id="stop35" />
</linearGradient>

<linearGradient
   id="SVGID_3_"
   gradientUnits="userSpaceOnUse"
   x1="1707.4414"
   y1="1290.0475"
   x2="1646.682"
   y2="1211.2225"
   gradientTransform="matrix(9.0679038,0,0,-6.989591,-14792,9670.8858)">
	<stop
   offset="0"
   style="stop-color:#FF3A44"
   id="stop40" />
	<stop
   offset="1"
   style="stop-color:#C31162"
   id="stop42" />
</linearGradient>

<linearGradient
   id="SVGID_4_"
   gradientUnits="userSpaceOnUse"
   x1="1660.6357"
   y1="1365.6676"
   x2="1687.767"
   y2="1330.4501"
   gradientTransform="matrix(9.0679038,0,0,-6.9859687,-14792,9659.019)">
	<stop
   offset="0"
   style="stop-color:#32A071"
   id="stop47" />
	<stop
   offset="6.850000e-02"
   style="stop-color:#2DA771"
   id="stop49" />
	<stop
   offset="0.4762"
   style="stop-color:#15CF74"
   id="stop51" />
	<stop
   offset="0.8009"
   style="stop-color:#06E775"
   id="stop53" />
	<stop
   offset="1"
   style="stop-color:#00F076"
   id="stop55" />
</linearGradient>



<g
   id="g185"
   transform="matrix(0.04129519,0,0,0.04129519,-3.7117785,-4.7150715)"><path
     class="st0"
     d="M 3250.0062,1082.5497 H 211.47362 c -67.0131,0 -121.589604,-54.5765 -121.589604,-121.04622 V 235.22592 c 0,-66.71127 54.576504,-121.04625 121.589604,-121.04625 H 3250.0062 c 66.9528,0 121.5896,54.33498 121.5896,121.04625 v 726.27756 c 0,66.46972 -54.6368,121.04622 -121.5896,121.04622 z"
     id="path6"
     style="stroke-width:0.603722" /><path
     class="st1"
     d="m 3250.0062,133.55915 c 56.2065,0 102.2101,45.70175 102.2101,101.66677 v 726.27756 c 0,55.96502 -45.7017,101.66672 -102.2101,101.66672 H 211.47362 c -56.2065,0 -102.2101,-45.7017 -102.2101,-101.66672 V 235.22592 c 0,-55.96502 45.7017,-101.66677 102.2101,-101.66677 0,0 3038.53258,0 3038.53258,0 z m 0,-19.37948 H 211.47362 c -67.0131,0 -121.589604,54.57647 -121.589604,121.04625 v 726.27756 c 0,66.71122 54.576504,121.04622 121.589604,121.04622 H 3250.0062 c 66.9528,0 121.5896,-54.335 121.5896,-121.04622 V 235.22592 c 0,-66.46978 -54.6368,-121.04625 -121.5896,-121.04625 z"
     id="path8"
     style="stroke-width:0.603722" /><path
     class="st2"
     d="m 1818.7022,434.51454 c -21.9151,0 -40.389,-7.66727 -54.9991,-22.76032 -14.4893,-14.67044 -22.5792,-34.89513 -22.2169,-55.54242 0,-22.03585 7.4861,-40.69086 22.2169,-55.48204 14.5497,-15.09305 33.0236,-22.76032 54.9387,-22.76032 21.6736,0 40.1475,7.66727 54.9991,22.76032 14.7308,15.27416 22.217,33.92917 22.217,55.48204 -0.2415,22.09623 -7.7277,40.75124 -22.217,55.48205 -14.5497,15.21379 -33.0236,22.82069 -54.9387,22.82069 z m -652.0801,0 c -21.4321,0 -40.0268,-7.54652 -55.2406,-22.45846 -15.093,-14.85156 -22.7603,-33.62731 -22.7603,-55.7839 0,-22.1566 7.6673,-40.93235 22.7603,-55.78391 14.912,-14.91194 33.5066,-22.45846 55.2406,-22.45846 10.6255,0 20.9492,2.11303 30.8502,6.39945 9.7199,4.16568 17.6287,9.84067 23.4848,16.78347 l 1.4489,1.7508 -16.3609,16.059 -1.6904,-1.99228 c -9.2369,-10.98774 -21.6132,-16.36087 -37.9741,-16.36087 -14.6101,0 -27.3486,5.19201 -37.8534,15.45529 -10.5651,10.32364 -15.9382,23.84701 -15.9382,40.20788 0,16.36086 5.3731,29.88423 15.9382,40.20788 10.5048,10.26327 23.2433,15.45528 37.8534,15.45528 15.576,0 28.6768,-5.19201 38.8797,-15.45528 6.0372,-6.03722 9.7803,-14.48933 11.1085,-25.17521 h -52.4634 v -22.5792 h 74.9822 l 0.3019,2.05266 c 0.5433,3.80345 1.0867,7.72764 1.0867,11.34997 0,20.82841 -6.2787,37.67225 -18.7154,50.10892 -14.1271,14.73082 -32.601,22.21697 -54.9387,22.21697 z m 867.0051,-3.19973 h -23.1225 l -70.8166,-113.31861 0.6037,20.40581 v 92.85243 h -23.1226 v -150.0249 h 26.3827 l 0.7245,1.14707 66.5905,106.73804 -0.6037,-20.34543 v -87.53968 h 23.364 z m -388.6762,0 h -23.4244 V 303.80874 h -40.6305 v -22.5792 h 104.625 v 22.5792 h -40.6305 v 127.50607 z m -83.1325,0 h -23.364 V 281.22954 h 23.364 z m -131.3095,0 h -23.3641 V 303.80874 h -40.6305 v -22.5792 h 104.6251 v 22.5792 h -40.6305 z m -78.7857,-0.24148 h -89.5924 V 281.22954 h 89.5924 v 22.5792 h -66.168 v 41.17383 h 59.7081 v 22.33772 h -59.7081 v 41.17383 h 66.168 z m 429.1255,-34.83476 c 10.4444,10.44439 23.1226,15.69677 37.8534,15.69677 15.1534,0 27.5297,-5.13164 37.8534,-15.69677 10.2632,-10.26327 15.4552,-23.72627 15.4552,-39.96639 0,-16.24013 -5.192,-29.7635 -15.3949,-39.9664 -10.4444,-10.44439 -23.1829,-15.69677 -37.8533,-15.69677 -15.1535,0 -27.5298,5.13164 -37.793,15.69677 -10.2633,10.26328 -15.4553,23.72627 -15.4553,39.9664 0,16.24012 5.1316,29.76349 15.3345,39.96639 z"
     id="path10"
     style="stroke-width:0.603722" /><path
     class="st3"
     d="m 1739.3128,640.86671 c -57.0518,0 -103.2969,43.28686 -103.2969,102.99496 0,59.16471 46.547,102.99501 103.2969,102.99501 57.0517,0 103.2968,-43.5888 103.2968,-102.99501 0,-59.7081 -46.2451,-102.99496 -103.2968,-102.99496 z m 0,165.17837 c -31.2125,0 -58.0781,-25.83935 -58.0781,-62.4249 0,-37.1289 26.926,-62.42485 58.0781,-62.42485 31.2124,0 58.078,25.29595 58.078,62.42485 0.06,36.82704 -26.8656,62.4249 -58.078,62.4249 z M 1513.9433,640.86671 c -57.0517,0 -103.2968,43.28686 -103.2968,102.99496 0,59.16471 46.547,102.99501 103.2968,102.99501 57.0518,0 103.2969,-43.5888 103.2969,-102.99501 0,-59.7081 -46.3055,-102.99496 -103.2969,-102.99496 z m 0,165.17837 c -31.2124,0 -58.078,-25.83935 -58.078,-62.4249 0,-37.1289 26.926,-62.42485 58.078,-62.42485 31.2125,0 58.0781,25.29595 58.0781,62.42485 0,36.82704 -26.8656,62.4249 -58.0781,62.4249 z M 1245.7701,672.32062 v 43.58872 h 104.625 c -3.1998,24.45074 -11.2896,42.50203 -23.6659,54.87833 -15.3346,15.33454 -39.0005,31.99731 -80.7177,31.99731 -64.2963,0 -114.5864,-51.92013 -114.5864,-116.21652 0,-64.29639 50.2901,-116.21648 114.5864,-116.21648 34.7141,0 60.01,13.70449 78.7858,31.21243 l 30.9105,-30.91057 c -26.0808,-24.99409 -60.7948,-44.13207 -109.4548,-44.13207 -88.2037,0 -162.2201,71.84291 -162.2201,159.8052 0,88.20378 73.956,159.80521 162.2201,159.80521 47.6337,0 83.374,-15.576 111.6282,-44.9169 28.7976,-28.79756 37.9138,-69.42805 37.9138,-102.21015 0,-10.2029 -0.7849,-19.37947 -2.4149,-27.16749 h -147.6704 c 0.06,-0.0604 0.06,0.48298 0.06,0.48298 z m 1096.9024,33.92917 c -8.6332,-23.12255 -34.714,-65.62457 -88.2038,-65.62457 -53.0068,0 -97.0785,41.71718 -97.0785,102.99496 0,57.8366 43.5887,102.995 102.2101,102.995 47.0903,0 74.4993,-28.7976 85.7889,-45.7018 l -34.9555,-23.4244 c -11.5914,17.20608 -27.7108,28.4957 -50.5919,28.4957 -23.1225,0 -39.3023,-10.50478 -50.0485,-31.21244 l 137.709,-57.05173 c 0,0.0604 -4.8298,-11.47072 -4.8298,-11.47072 z m -140.4258,34.41216 c -1.0867,-39.78528 30.9106,-60.00997 53.7917,-60.00997 18.0513,0 33.0839,8.87472 38.2156,21.79437 z m -111.8696,99.79523 h 45.2187 V 537.87174 h -45.2187 z m -74.2578,-176.70941 h -1.6301 c -10.2029,-12.13481 -29.5824,-23.12255 -54.335,-23.12255 -51.3767,0 -98.7085,45.21877 -98.7085,103.29682 0,57.83654 47.0903,102.51204 98.7085,102.51204 24.4508,0 44.1321,-11.0482 54.335,-23.4245 h 1.6301 v 14.7912 c 0,39.3023 -21.0096,60.493 -54.8784,60.493 -27.7108,0 -44.9169,-19.9229 -51.92,-36.5856 l -39.3023,16.4213 c 11.2896,27.1674 41.4153,60.7948 91.162,60.7948 53.0068,0 97.9237,-31.2125 97.9237,-107.3418 v -184.7993 h -42.7435 v 16.96459 c 0.06,0 -0.2415,0 -0.2415,0 z m -51.9201,142.29731 c -31.2124,0 -57.2932,-26.08084 -57.2932,-62.12304 0,-36.34406 26.0808,-62.66634 57.2932,-62.66634 30.9105,0 54.8783,26.62414 54.8783,62.66634 0.3019,36.0422 -23.9074,62.12304 -54.8783,62.12304 z m 590.1986,-268.17334 h -108.1266 v 302.58544 h 45.2187 V 725.87076 h 62.9682 c 50.0486,0 99.2519,-36.28369 99.2519,-93.87877 0,-57.59507 -49.0222,-94.12025 -99.3122,-94.12025 z m 1.3282,145.73848 h -64.2964 V 579.77004 h 64.2964 c 33.8688,0 53.0067,27.95233 53.0067,51.92009 0,23.72627 -19.3794,51.92009 -53.0067,51.92009 z m 279.2214,-43.28686 c -32.8425,0 -66.7113,14.5497 -80.7177,46.2451 l 40.0872,16.66272 c 8.6332,-16.66272 24.4507,-22.33771 41.1738,-22.33771 23.4244,0 47.0903,14.00635 47.6337,39.00044 v 3.19973 c -8.0899,-4.58829 -25.8393,-11.59147 -47.0903,-11.59147 -43.2869,0 -87.1775,23.66591 -87.1775,68.03947 0,40.63044 35.4989,66.71124 75.0426,66.71124 30.3673,0 47.0904,-13.7045 57.5347,-29.5823 h 1.6301 v 23.4244 h 43.5887 V 724.18034 c 0,-53.97275 -40.0871,-83.85698 -91.7053,-83.85698 z m -5.675,165.72172 c -14.7912,0 -35.4989,-7.2447 -35.4989,-25.83935 0,-23.42441 25.8393,-32.29912 47.8752,-32.29912 19.9228,0 29.3409,4.28642 41.1738,10.2029 -3.2601,27.16749 -26.2015,47.69407 -53.5501,47.93557 z m 256.4007,-159.2619 -51.9201,131.24915 h -1.6301 l -53.7916,-131.24915 h -48.66 l 80.7177,183.4711 -46.0037,101.9686 h 47.0904 l 124.1856,-285.4397 c 0,0 -49.9882,0 -49.9882,0 z m -407.0294,193.674 h 45.2188 V 537.87174 h -45.2188 z"
     id="path12"
     style="stroke-width:0.603722" /><path
     class="st4"
     d="m 342.48132,296.56407 c -7.0032,7.54653 -11.0482,19.07762 -11.0482,34.17067 v 535.32024 c 0,15.0931 4.045,26.6242 11.2897,33.8688 l 1.8715,1.6301 299.9291,-299.9291 v -6.70132 L 344.35282,294.93402 c 0,0 -1.8715,1.63005 -1.8715,1.63005 z"
     id="path27"
     style="fill:url(#SVGID_1_);stroke-width:0.603722" /><path
     class="st5"
     d="M 744.31862,701.903 644.28192,601.86627 v -7.00318 l 100.0367,-100.03673 2.1734,1.32819 118.3295,67.25463 c 33.8688,19.07761 33.8688,50.5919 0,69.911 l -118.3295,67.25463 c 0,0 -2.1734,1.32819 -2.1734,1.32819 z"
     id="path38"
     style="fill:url(#SVGID_2_);stroke-width:0.603722" /><path
     class="st6"
     d="m 746.49202,700.57481 -102.2101,-102.21013 -301.8006,301.8006 c 11.0481,11.833 29.5823,13.1611 50.29,1.6301 l 353.7207,-201.22057"
     id="path45"
     style="fill:url(#SVGID_3_);stroke-width:0.603722" /><path
     class="st7"
     d="M 746.49202,496.15455 392.77132,295.23589 c -20.7077,-11.83295 -39.3023,-10.20291 -50.29,1.63005 l 301.8006,301.49874 z"
     id="path58"
     style="fill:url(#SVGID_4_);stroke-width:0.603722" /><path
     class="st8"
     d="m 744.31862,698.40141 -351.3058,199.59047 c -19.621,11.2896 -37.1289,10.5048 -48.4185,0.2415 l -1.8715,1.8715 1.8715,1.6301 c 11.2896,10.2029 28.7975,11.0481 48.4185,-0.2415 l 353.7207,-200.91867 c 0,0 -2.4149,-2.1734 -2.4149,-2.1734 z"
     id="path60"
     style="stroke-width:0.603722" /><path
     class="st9"
     d="m 864.82152,629.81859 -120.8048,68.58282 2.1734,2.1734 118.3295,-67.25463 c 16.9646,-9.65955 25.296,-22.33771 25.296,-34.9555 -1.0263,11.59146 -9.6596,22.5792 -24.9941,31.45391 z"
     id="path62"
     style="stroke-width:0.603722" /><path
     class="st10"
     d="m 392.77132,298.73747 472.0502,268.1733 c 15.3345,8.63322 23.9678,19.92282 25.2959,31.45391 0,-12.61779 -8.3313,-25.29595 -25.2959,-34.9555 L 392.77132,295.23589 c -33.8688,-19.37948 -61.3382,-3.19973 -61.3382,35.49885 v 3.50158 c 0,-38.75895 27.4694,-54.63683 61.3382,-35.49885 z"
     id="path64"
     style="stroke-width:0.603722" /></g>
</svg>
