2024-08-21 10:27:45.862   [DBG] Check config path: '/home/jakub/TradingView/configs/config.json'
2024-08-21 10:27:45.862   [DBG] Check config path: '/opt/tradingview/app.asar/configs/config.json'
2024-08-21 10:27:45.862   [INF] Use config path: '/opt/tradingview/app.asar/configs/config.json'
2024-08-21 10:27:45.863   [DBG] Configuration.updateConfigFromEnvironment(): "TVD_DEBUGMODE: false"
2024-08-21 10:27:45.863   [DBG] Configuration.updateConfigFromEnvironment(): "TVD_LOG_VIEW_ENABLED: false"
2024-08-21 10:27:46.42    [DBG] Initializing UserService
2024-08-21 10:27:46.43    [INF] Initializing AppEventsService
2024-08-21 10:27:46.43    [DBG] Initializing AuthenticationHandler
2024-08-21 10:27:46.44    [DBG] Logger initialized
2024-08-21 10:27:46.45    [DBG] Initializing PersistenceService
2024-08-21 10:27:46.45    [DBG] Initializing MainService
2024-08-21 10:27:46.45    [DBG] MainService.subscribeAppEvents()
2024-08-21 10:27:46.45    [DBG] Initializing LocaleService
2024-08-21 10:27:46.45    [INF] Main service created. appPath: '/opt/tradingview/app.asar', documentsPath: '/home/jakub/TradingView' 
2024-08-21 10:27:46.46    [DBG] MainMenuService.buildAppMenu()
2024-08-21 10:27:46.47    [DBG] Initializing WindowService
2024-08-21 10:27:46.48    [DBG] MainMenuService.makeThemesMenu()
2024-08-21 10:27:46.49    [DBG] Initializing ThemeManager service
2024-08-21 10:27:46.49    [DBG] Cu.setPlatformTheme()
2024-08-21 10:27:46.58    [DBG] WindowService.getChartWindows()
2024-08-21 10:27:46.59    [DBG] Cu.availableThemes()
2024-08-21 10:27:46.60    [DBG] MainMenuService.buildAppMenu()
2024-08-21 10:27:46.60    [DBG] MainMenuService.makeThemesMenu()
2024-08-21 10:27:46.60    [DBG] Cu.availableThemes()
2024-08-21 10:27:46.61    [DBG] MainMenuService.buildAppMenu()
2024-08-21 10:27:46.61    [DBG] MainMenuService.makeThemesMenu()
2024-08-21 10:27:46.61    [DBG] Cu.availableThemes()
2024-08-21 10:27:46.62    [DBG] MainMenuService.buildAppMenu()
2024-08-21 10:27:46.62    [DBG] MainMenuService.makeThemesMenu()
2024-08-21 10:27:46.62    [DBG] Cu.availableThemes()
2024-08-21 10:27:46.136   [DBG] Initializing SettingsProvider
2024-08-21 10:27:46.136   [DBG] PasswordManagerService.getShouldSaveCredentials()
2024-08-21 10:27:46.136   [DBG] PasswordManagerService.setShouldSaveCredentials()
2024-08-21 10:27:46.137   [DBG] AppEventsService.doStartup()
2024-08-21 10:27:46.137   [DBG] AppEventsService.checkFirstRun()
2024-08-21 10:27:46.137   [DBG] Initializing TrackEventService
2024-08-21 10:27:46.137   [DBG] TrackEventService.updateAppTrackingStatus()
2024-08-21 10:27:46.138   [DBG] r.createRendererWorkerWindow()
2024-08-21 10:27:46.145   [DBG] BaseWindow.addDisposable()
2024-08-21 10:27:46.145   [DBG] BaseWindow.applyWindowTheme()
2024-08-21 10:27:46.145   [DBG] Cu.applyTheme()
2024-08-21 10:27:46.145   [DBG] BaseWindow.addDisposable()
2024-08-21 10:27:46.145   [DBG] BaseWindow.load()
2024-08-21 10:27:46.150   [DBG] BaseWindow.createAppAwaiter()
2024-08-21 10:27:46.150   [DBG] BaseWindow.createAppAwaiter()
2024-08-21 10:27:46.166   [DBG] AppEventsService.initSession()
2024-08-21 10:27:46.166   [DBG] Cu.setPlatformTheme()
2024-08-21 10:27:46.166   [DBG] UserService.Startup()
2024-08-21 10:27:46.166   [DBG] [10:27:46]: 'Startup ' (21) ms
2024-08-21 10:27:46.166   [INF] Build config: version=2.8.1, repositoryType=other
2024-08-21 10:27:46.166   [INF] Show Splash Window
2024-08-21 10:27:46.188   [DBG] MainService.registerOsTasks()
2024-08-21 10:27:46.188   [DBG] MainMenuService.buildAppMenu()
2024-08-21 10:27:46.188   [DBG] MainMenuService.makeThemesMenu()
2024-08-21 10:27:46.189   [DBG] Cu.availableThemes()
2024-08-21 10:27:46.189   [DBG] TrackEventService().Startup()
2024-08-21 10:27:46.189   [DBG] AppEventsService.getCid()
2024-08-21 10:27:46.189   [DBG] MainService.getVersionInfo()
2024-08-21 10:27:46.196   [DBG] PermissionsHandler.initialize()
2024-08-21 10:27:46.213   [WRN] Crash occured, sentry event id = cdbc228b3bfa4b7b88860b41c33196a6
2024-08-21 10:27:46.218   [ERR] Splash load error
Error: ERR_FAILED (-2) loading 'file:///opt/tradingview/app.asar/app/splash/index.html?rendererInitialData=%7B%22promoEventType%22%3A0%7D'
    at rejectAndCleanup (node:electron/js2c/browser_init:2:78444)
    at finishListener (node:electron/js2c/browser_init:2:78606)
    at WebContents.stopLoadingListener (node:electron/js2c/browser_init:2:78993)
    at WebContents.emit (node:events:531:35)
    at WebContents.emit (node:domain:488:12)
    at e.emit (/opt/tradingview/app.asar/index.js:2:1079229)2024-08-21 10:27:46.371   [DBG] Drag service window finished load
2024-08-21 10:27:46.374   [DBG] Initializing TabDragHandler
2024-08-21 10:27:46.379   [DBG] [10:27:46]-[10:27:46]: 'BaseWindow: loading window page, url: '/app/renderer-services/drag-service/index.html'' (234) ms
2024-08-21 10:27:46.379   [INF] Window page loaded, url: '/app/renderer-services/drag-service/index.html'
2024-08-21 10:27:46.381   [INF] Creating drag service
2024-08-21 10:27:46.382   [DBG] Native: capture pointer
2024-08-21 10:27:46.646   [INF] Will sign in user: 'JadeTrade007', id: '22839226'
2024-08-21 10:27:47.261   [INF] Locale info. locale: 'en', host: 'https://www.tradingview.com/'
2024-08-21 10:27:47.261   [DBG] MainMenuService.buildAppMenu()
2024-08-21 10:27:47.263   [DBG] MainMenuService.makeThemesMenu()
2024-08-21 10:27:47.263   [DBG] Cu.availableThemes()
2024-08-21 10:27:47.264   [DBG] UserService.notifyUserSignedIn()
2024-08-21 10:27:47.265   [DBG] PersistenceService.checkUserStorageExistence()
2024-08-21 10:27:47.265   [INF] Restore user app state from '/home/jakub/.config/TradingView/TVUserStorage/id-22839226/settings.json'
2024-08-21 10:27:47.265   [DBG] PersistenceService.restore()
2024-08-21 10:27:47.265   [DBG] FileBasedStorage.restore()
2024-08-21 10:27:47.265   [DBG] MainMenuService.buildAppMenu()
2024-08-21 10:27:47.266   [DBG] MainMenuService.makeThemesMenu()
2024-08-21 10:27:47.266   [DBG] Cu.availableThemes()
2024-08-21 10:27:47.266   [DBG] TrackEventService.setUserData()
2024-08-21 10:27:47.269   [DBG] LinkingService.internalApplyState()
2024-08-21 10:27:47.269   [DBG] MainService.beforeStateApplying()
2024-08-21 10:27:47.269   [DBG] MainService.stateApplied()
2024-08-21 10:27:47.269   [DBG] PersistentArrayProxy.internalApplyState()
2024-08-21 10:27:47.272   [DBG] BaseWindow.addDisposable()
2024-08-21 10:27:47.272   [DBG] BaseWindow.applyWindowTheme()
2024-08-21 10:27:47.272   [DBG] Cu.applyTheme()
2024-08-21 10:27:47.272   [DBG] BaseWindow.addDisposable()
2024-08-21 10:27:47.272   [INF] Created base window, tweaking current window
2024-08-21 10:27:47.272   [DBG] [c6194629] BaseWindow.addDisposable()
2024-08-21 10:27:47.272   [DBG] [c6194629] BaseWindow.addDisposable()
2024-08-21 10:27:47.282   [DBG] [c6194629] TabbedWindowBase.internalApplyState()
2024-08-21 10:27:47.283   [DBG] [c6194629] TabbedWindowBase.createAndAddTab()
2024-08-21 10:27:47.283   [DBG] [c6194629] BaseWindow.load()
2024-08-21 10:27:47.287   [DBG] [c6194629] BaseWindow.createAppAwaiter()
2024-08-21 10:27:47.291   [DBG] BaseWindow.addDisposable()
2024-08-21 10:27:47.291   [DBG] BaseWindow.applyWindowTheme()
2024-08-21 10:27:47.291   [DBG] Cu.applyTheme()
2024-08-21 10:27:47.291   [DBG] BaseWindow.addDisposable()
2024-08-21 10:27:47.291   [INF] Created base window, tweaking current window
2024-08-21 10:27:47.291   [DBG] [6ce205cd] BaseWindow.addDisposable()
2024-08-21 10:27:47.291   [DBG] [6ce205cd] BaseWindow.addDisposable()
2024-08-21 10:27:47.300   [DBG] [6ce205cd] TabbedWindowBase.internalApplyState()
2024-08-21 10:27:47.300   [DBG] [6ce205cd] TabbedWindowBase.createAndAddTab()
2024-08-21 10:27:47.300   [DBG] [6ce205cd] BaseWindow.load()
2024-08-21 10:27:47.305   [DBG] [6ce205cd] BaseWindow.createAppAwaiter()
2024-08-21 10:27:47.306   [DBG] PersistentArrayProxy.resetItems()
2024-08-21 10:27:47.482   [DBG] [10:27:47]-[10:27:47]: 'BaseWindow: loading window page, url: '/app/window/index.html'' (199) ms
2024-08-21 10:27:47.486   [DBG] Cu.applyTheme()
2024-08-21 10:27:47.497   [DBG] [Renderer] initializeIpcProxyForInstance windowControl id: 6ce205cd-anonymous; Old id undefined
2024-08-21 10:27:47.501   [DBG] [c6194629] TabbedWindowBase.getWindowStateAsync()
2024-08-21 10:27:47.508   [DBG] Cu.applyTheme()
2024-08-21 10:27:47.522   [DBG] [Renderer] initializeIpcProxyForInstance windowControl id: c6194629-anonymous; Old id undefined
2024-08-21 10:27:47.523   [DBG] App.componentDidMount()
2024-08-21 10:27:47.523   [DBG] App.tokyoNightInitialize()
2024-08-21 10:27:47.523   [DBG] App.setParentId()
2024-08-21 10:27:47.524   [DBG] [Renderer] initializeIpcProxyForInstance windowControl id: c6194629-anonymous; Old id undefined
2024-08-21 10:27:47.524   [DBG] App.setParentId(): "Registered window id: c6194629-anonymous"
2024-08-21 10:27:47.524   [DBG] <App>.componentDidMount(): "Will update window state: 3"
2024-08-21 10:27:47.525   [INF] Window finished load id: 'c6194629'
2024-08-21 10:27:47.526   [DBG] [c6194629] TabbedWindowBase.notifyTabsChanged()
2024-08-21 10:27:47.526   [DBG] [c6194629] TabbedWindowBase.updateTabsContainer()
2024-08-21 10:27:47.526   [DBG] [c6194629] BaseWindow.show()
2024-08-21 10:27:47.527   [INF] Window page loaded, url: '/app/window/index.html'
2024-08-21 10:27:47.529   [DBG] [6b9b1671] ce.setupTVViewEvents()
2024-08-21 10:27:47.531   [DBG] [c6194629] TabbedWindowBase.handleTabLoading()
2024-08-21 10:27:47.531   [DBG] [c6194629] TabbedWindowBase.setWindowLoading()
2024-08-21 10:27:47.532   [DBG] [c6194629] TabbedWindowBase.setActiveTab()
2024-08-21 10:27:47.532   [DBG] [c6194629] TabbedWindowBase.notifyTabsChanged()
2024-08-21 10:27:47.532   [DBG] [c6194629] TabbedWindowBase.updateTabsContainer()
2024-08-21 10:27:47.532   [DBG] [c6194629] TabbedWindowBase.setWindowLoading()
2024-08-21 10:27:47.533   [DBG] [c6194629] TabbedWindowBase.setWindowLoading()
2024-08-21 10:27:47.533   [DBG] [c6194629] TabbedWindowBase.notifyTabsChanged()
2024-08-21 10:27:47.533   [DBG] [c6194629] TabbedWindowBase.updateTabsContainer()
2024-08-21 10:27:47.533   [DBG] TaskQueueImpl.startTask()
2024-08-21 10:27:47.533   [DBG] Tab id: 6b9b1671, loading url: https://www.tradingview.com/chart/hYt84GHq/
2024-08-21 10:27:47.534   [DBG] Check config path: '/home/jakub/TradingView/configs/nav-rules.json'
2024-08-21 10:27:47.534   [DBG] Check config path: '/opt/tradingview/app.asar/configs/nav-rules.json'
2024-08-21 10:27:47.534   [INF] Use config path: '/opt/tradingview/app.asar/configs/nav-rules.json'
2024-08-21 10:27:47.537   [DBG] [c6194629] TabbedWindowBase.setActiveTab()
2024-08-21 10:27:47.537   [DBG] [c6194629] TabbedWindowBase.notifyTabsChanged()
2024-08-21 10:27:47.537   [DBG] [c6194629] TabbedWindowBase.updateTabsContainer()
2024-08-21 10:27:47.537   [DBG] [c6194629] TabbedWindowBase.setWindowLoading()
2024-08-21 10:27:47.537   [DBG] [c6194629] TabbedWindowBase.setWindowLoading()
2024-08-21 10:27:47.537   [DBG] [c6194629] TabbedWindowBase.updateTabsContainer()
2024-08-21 10:27:47.537   [DBG] [c6194629] TabbedWindowBase.restoreWindowState()
2024-08-21 10:27:47.538   [DBG] TabPanel.render(): "Tabs panel registered"
2024-08-21 10:27:47.538   [DBG] <App>.componentDidMount(): "App sends ready event"
2024-08-21 10:27:47.542   [DBG] [10:27:47]-[10:27:47]: 'BaseWindow: loading window page, url: '/app/window/index.html'' (242) ms
2024-08-21 10:27:47.544   [DBG] [077d922c] TabPanel.updateTabs()
2024-08-21 10:27:47.545   [DBG] [077d922c] TabPanel.updateTabs()
2024-08-21 10:27:47.545   [DBG] [077d922c] TabPanel.updateTabs()
2024-08-21 10:27:47.545   [DBG] [077d922c] TabPanel.updateTabs()
2024-08-21 10:27:47.545   [DBG] [077d922c] TabPanel.updateTabs()
2024-08-21 10:27:47.546   [DBG] AppEventsService.focusWebContent()
2024-08-21 10:27:47.559   [DBG] [6ce205cd] TabbedWindowBase.getWindowStateAsync()
2024-08-21 10:27:47.582   [DBG] [c6194629] TabbedWindowBase.registerTabController()
2024-08-21 10:27:47.582   [INF] TabbedWindowBase.registerTabController(tabId: 6b9b1671-e8e4-46ac-a6f0-6da41ce09e0a, from window id: d2c74e50-anonymous)
2024-08-21 10:27:47.589   [DBG] App.initialize()
2024-08-21 10:27:47.589   [DBG] App.subscribeOnWindowEvents()
2024-08-21 10:27:47.592   [DBG] App.componentDidMount()
2024-08-21 10:27:47.594   [DBG] App.tokyoNightInitialize()
2024-08-21 10:27:47.596   [DBG] App.setParentId()
2024-08-21 10:27:47.598   [DBG] [Renderer] initializeIpcProxyForInstance windowControl id: 6ce205cd-anonymous; Old id undefined
2024-08-21 10:27:47.601   [DBG] App.setParentId(): "Registered window id: 6ce205cd-anonymous"
2024-08-21 10:27:47.602   [DBG] <App>.componentDidMount(): "Will update window state: 3"
2024-08-21 10:27:47.605   [DBG] NativeDragService.registerDraggable()
2024-08-21 10:27:47.607   [DBG] [c6194629] TabbedWindowBase.registerTabPanel()
2024-08-21 10:27:47.608   [DBG] TabComponent.componentDidMount(): "registered controller for tab d2c74e50"
2024-08-21 10:27:47.610   [DBG] NativeDragService.registerDroppable()
2024-08-21 10:27:47.611   [INF] Window finished load id: '6ce205cd'
2024-08-21 10:27:47.612   [DBG] [6ce205cd] TabbedWindowBase.notifyTabsChanged()
2024-08-21 10:27:47.612   [DBG] [6ce205cd] TabbedWindowBase.updateTabsContainer()
2024-08-21 10:27:47.612   [DBG] [6ce205cd] BaseWindow.show()
2024-08-21 10:27:47.615   [INF] Window page loaded, url: '/app/window/index.html'
2024-08-21 10:27:47.622   [DBG] [4622c29c] ce.setupTVViewEvents()
2024-08-21 10:27:47.622   [DBG] [6ce205cd] TabbedWindowBase.handleTabLoading()
2024-08-21 10:27:47.622   [DBG] [6ce205cd] TabbedWindowBase.setWindowLoading()
2024-08-21 10:27:47.623   [DBG] [6ce205cd] TabbedWindowBase.setActiveTab()
2024-08-21 10:27:47.623   [DBG] [6ce205cd] TabbedWindowBase.notifyTabsChanged()
2024-08-21 10:27:47.623   [DBG] [6ce205cd] TabbedWindowBase.updateTabsContainer()
2024-08-21 10:27:47.623   [DBG] [6ce205cd] TabbedWindowBase.setWindowLoading()
2024-08-21 10:27:47.623   [DBG] [6ce205cd] TabbedWindowBase.setWindowLoading()
2024-08-21 10:27:47.623   [DBG] [6ce205cd] TabbedWindowBase.notifyTabsChanged()
2024-08-21 10:27:47.623   [DBG] [6ce205cd] TabbedWindowBase.updateTabsContainer()
2024-08-21 10:27:47.623   [DBG] TaskQueueImpl.startTask()
2024-08-21 10:27:47.623   [DBG] Tab id: 4622c29c, loading url: https://www.tradingview.com/chart/hYt84GHq/
2024-08-21 10:27:47.627   [DBG] [6ce205cd] TabbedWindowBase.setActiveTab()
2024-08-21 10:27:47.627   [DBG] [6ce205cd] TabbedWindowBase.notifyTabsChanged()
2024-08-21 10:27:47.627   [DBG] [6ce205cd] TabbedWindowBase.updateTabsContainer()
2024-08-21 10:27:47.627   [DBG] [6ce205cd] TabbedWindowBase.setWindowLoading()
2024-08-21 10:27:47.627   [DBG] [6ce205cd] TabbedWindowBase.setWindowLoading()
2024-08-21 10:27:47.627   [DBG] [6ce205cd] TabbedWindowBase.updateTabsContainer()
2024-08-21 10:27:47.627   [DBG] [6ce205cd] TabbedWindowBase.restoreWindowState()
2024-08-21 10:27:47.629   [DBG] LinkingService.internalExtractState()
2024-08-21 10:27:47.629   [DBG] PersistentArrayProxy.internalExtractState()
2024-08-21 10:27:47.629   [DBG] [c6194629] TabbedWindowBase.internalExtractState()
2024-08-21 10:27:47.629   [DBG] [c6194629] TabbedWindowBase.makeStateSnapshot()
2024-08-21 10:27:47.630   [DBG] [6ce205cd] TabbedWindowBase.internalExtractState()
2024-08-21 10:27:47.630   [DBG] [6ce205cd] TabbedWindowBase.makeStateSnapshot()
2024-08-21 10:27:47.631   [DBG] TrackEventService.setAppWindowsData()
2024-08-21 10:27:47.631   [DBG] WindowService.mergeAnonymousSession()
2024-08-21 10:27:47.631   [DBG] MainMenuService.buildAppMenu()
2024-08-21 10:27:47.632   [DBG] MainMenuService.makeThemesMenu()
2024-08-21 10:27:47.633   [DBG] Cu.availableThemes()
2024-08-21 10:27:47.647   [DBG] s.notifyListeners()
2024-08-21 10:27:47.648   [DBG] PasswordManagerService.getShouldSaveCredentials()
2024-08-21 10:27:47.648   [DBG] PasswordManagerService.setShouldSaveCredentials()
2024-08-21 10:27:47.648   [INF] Hide Splash Window
2024-08-21 10:27:47.648   [DBG] AppEventsService.openForwardedUrl()
2024-08-21 10:27:47.648   [DBG] [10:27:47]: 'Session restored' (1503) ms
2024-08-21 10:27:47.649   [DBG] [10:27:47]-[10:27:47]: 'Restore user session' (384) ms
2024-08-21 10:27:47.649   [DBG] TrackEventService.trackStartApp()
2024-08-21 10:27:47.656   [DBG] TabPanel.render(): "Tabs panel registered"
2024-08-21 10:27:47.657   [DBG] <App>.componentDidMount(): "App sends ready event"
2024-08-21 10:27:47.657   [DBG] WindowService.findWindowAsync()
2024-08-21 10:27:47.658   [DBG] WindowService.findWindowAsync()
2024-08-21 10:27:47.677   [DBG] [6ce205cd] TabbedWindowBase.registerTabPanel()
2024-08-21 10:27:47.679   [DBG] TabComponent.componentDidMount(): "registered draggable with id d2c74e50"
2024-08-21 10:27:47.680   [DBG] TabPanel.componentDidMount(): "Registered droppable with id: 077d922c"
2024-08-21 10:27:47.682   [DBG] [f3fc5f90] TabPanel.updateTabs()
2024-08-21 10:27:47.686   [DBG] AppEventsService.focusWebContent()
2024-08-21 10:27:47.689   [DBG] [f3fc5f90] TabPanel.updateTabs()
2024-08-21 10:27:47.690   [DBG] [f3fc5f90] TabPanel.updateTabs()
2024-08-21 10:27:47.690   [DBG] [f3fc5f90] TabPanel.updateTabs()
2024-08-21 10:27:47.691   [DBG] [f3fc5f90] TabPanel.updateTabs()
2024-08-21 10:27:47.691   [DBG] App.initialize()
2024-08-21 10:27:47.692   [DBG] App.subscribeOnWindowEvents()
2024-08-21 10:27:47.696   [DBG] AppEventsService.focusWebContent()
2024-08-21 10:27:47.703   [DBG] [6ce205cd] TabbedWindowBase.registerTabController()
2024-08-21 10:27:47.703   [INF] TabbedWindowBase.registerTabController(tabId: 4622c29c-bee9-44cc-afbe-a71780ba59a5, from window id: 284a0f93-anonymous)
2024-08-21 10:27:47.705   [DBG] NativeDragService.registerDroppable()
2024-08-21 10:27:47.706   [DBG] WindowService.findWindowAsync()
2024-08-21 10:27:47.707   [DBG] NativeDragService.registerDraggable()
2024-08-21 10:27:47.708   [DBG] WindowService.findWindowAsync()
2024-08-21 10:27:47.711   [DBG] TabComponent.componentDidMount(): "registered controller for tab 284a0f93"
2024-08-21 10:27:47.711   [DBG] TabPanel.componentDidMount(): "Registered droppable with id: f3fc5f90"
2024-08-21 10:27:47.714   [DBG] TabComponent.componentDidMount(): "registered draggable with id 284a0f93"
2024-08-21 10:27:47.913   [INF] Tab [6b9b1671] successfully navigated to https://www.tradingview.com/chart/hYt84GHq/
2024-08-21 10:27:48.45    [DBG] Tab id: 6b9b1671 page-title-updated
2024-08-21 10:27:48.355   [INF] Tab [4622c29c] successfully navigated to https://www.tradingview.com/chart/hYt84GHq/
2024-08-21 10:27:48.413   [DBG] Tab id: 4622c29c page-title-updated
2024-08-21 10:27:49.296   [DBG] Tab id: 4622c29c dom-ready
2024-08-21 10:27:49.296   [DBG] WindowService.zoom()
2024-08-21 10:27:49.297   [DBG] ZoomController.setZoomValue()
2024-08-21 10:27:49.297   [DBG] WindowService.getChartWindows()
2024-08-21 10:27:49.298   [DBG] MainMenuService.buildAppMenu()
2024-08-21 10:27:49.304   [DBG] MainMenuService.makeThemesMenu()
2024-08-21 10:27:49.304   [DBG] Cu.availableThemes()
2024-08-21 10:27:49.311   [DBG] Tab id: 6b9b1671 dom-ready
2024-08-21 10:27:49.311   [DBG] WindowService.zoom()
2024-08-21 10:27:49.311   [DBG] ZoomController.setZoomValue()
2024-08-21 10:27:49.311   [DBG] WindowService.getChartWindows()
2024-08-21 10:27:49.311   [DBG] MainMenuService.buildAppMenu()
2024-08-21 10:27:49.311   [DBG] MainMenuService.makeThemesMenu()
2024-08-21 10:27:49.311   [DBG] Cu.availableThemes()
2024-08-21 10:27:51.570   [DBG] [6ce205cd] TabbedWindowBase.findTabByWebContents()
2024-08-21 10:27:51.611   [DBG] [6ce205cd] TabbedWindowBase.findTabByWebContents()
2024-08-21 10:27:52.07    [DBG] [c6194629] TabbedWindowBase.findTabByWebContents()
2024-08-21 10:27:52.143   [DBG] [c6194629] TabbedWindowBase.findTabByWebContents()
2024-08-21 10:27:52.314   [DBG] [d2c74e50] ce.restoreChartLayout()
2024-08-21 10:27:54.815   [DBG] [6ce205cd] TabbedWindowBase.setWindowLoading()
2024-08-21 10:27:54.818   [DBG] [6ce205cd] TabbedWindowBase.setActiveTabView()
2024-08-21 10:27:54.824   [DBG] [6ce205cd] TabbedWindowBase.setWindowLoading()
2024-08-21 10:27:55.07    [DBG] [c6194629] TabbedWindowBase.setWindowLoading()
2024-08-21 10:27:55.08    [DBG] [c6194629] TabbedWindowBase.setActiveTabView()
2024-08-21 10:27:55.09    [DBG] [c6194629] TabbedWindowBase.setWindowLoading()
2024-08-21 10:27:55.639   [INF] [restoreLayout()] will restore symbols
2024-08-21 10:27:55.641   [DBG] resultSymbolChanges = fulfilled; resultIntervalChanges = fulfilled;
2024-08-21 10:27:55.729   [DBG] TvTab.setupTitleUpdates(): Layout restored.
2024-08-21 10:28:19.120   [DBG] AppEventsService.focusWebContent()
2024-08-21 10:32:46.43    [DBG] RemoteInstanceManager.cleanSubscriptions()
2024-08-21 10:33:19.130   [DBG] PersistenceService.store()
2024-08-21 10:33:19.130   [DBG] LinkingService.internalExtractState()
2024-08-21 10:33:19.130   [DBG] PersistentArrayProxy.internalExtractState()
2024-08-21 10:33:19.130   [DBG] [6ce205cd] TabbedWindowBase.internalExtractState()
2024-08-21 10:33:19.130   [DBG] [6ce205cd] TabbedWindowBase.makeStateSnapshot()
2024-08-21 10:33:19.131   [DBG] [c6194629] TabbedWindowBase.internalExtractState()
2024-08-21 10:33:19.131   [DBG] [c6194629] TabbedWindowBase.makeStateSnapshot()
2024-08-21 10:33:19.131   [DBG] LinkingService.internalExtractState()
2024-08-21 10:33:19.131   [DBG] PersistentArrayProxy.internalExtractState()
2024-08-21 10:33:19.131   [DBG] [6ce205cd] TabbedWindowBase.internalExtractState()
2024-08-21 10:33:19.131   [DBG] [6ce205cd] TabbedWindowBase.makeStateSnapshot()
2024-08-21 10:33:19.132   [DBG] [c6194629] TabbedWindowBase.internalExtractState()
2024-08-21 10:33:19.132   [DBG] [c6194629] TabbedWindowBase.makeStateSnapshot()
2024-08-21 10:33:19.132   [DBG] TrackEventService.setAppWindowsData()
2024-08-21 10:33:19.132   [DBG] FileBasedStorage.store()
2024-08-21 10:37:46.43    [DBG] RemoteInstanceManager.cleanSubscriptions()
2024-08-21 10:42:46.44    [DBG] RemoteInstanceManager.cleanSubscriptions()
2024-08-21 10:47:46.44    [DBG] RemoteInstanceManager.cleanSubscriptions()
2024-08-21 10:52:46.45    [DBG] RemoteInstanceManager.cleanSubscriptions()
2024-08-21 10:57:46.45    [DBG] RemoteInstanceManager.cleanSubscriptions()
2024-08-21 11:00:47.225   [WRN] Failed request to https://data.tradingview.com/ping
2024-08-21 11:02:46.45    [DBG] RemoteInstanceManager.cleanSubscriptions()
2024-08-21 11:07:46.45    [DBG] RemoteInstanceManager.cleanSubscriptions()
2024-08-21 11:12:46.46    [DBG] RemoteInstanceManager.cleanSubscriptions()
2024-08-21 11:17:07.249   [WRN] Failed request to https://data.tradingview.com/ping
2024-08-21 11:17:46.46    [DBG] RemoteInstanceManager.cleanSubscriptions()
2024-08-21 11:22:46.46    [DBG] RemoteInstanceManager.cleanSubscriptions()
2024-08-21 11:27:46.47    [DBG] RemoteInstanceManager.cleanSubscriptions()
2024-08-21 11:32:46.47    [DBG] RemoteInstanceManager.cleanSubscriptions()
2024-08-21 11:37:46.47    [DBG] RemoteInstanceManager.cleanSubscriptions()
2024-08-21 11:42:46.49    [DBG] RemoteInstanceManager.cleanSubscriptions()
2024-08-21 11:47:46.49    [DBG] RemoteInstanceManager.cleanSubscriptions()
2024-08-21 11:52:46.50    [DBG] RemoteInstanceManager.cleanSubscriptions()
2024-08-21 11:57:46.50    [DBG] RemoteInstanceManager.cleanSubscriptions()
2024-08-21 12:02:46.50    [DBG] RemoteInstanceManager.cleanSubscriptions()
2024-08-21 12:03:47.360   [WRN] Failed request to https://data.tradingview.com/ping
2024-08-21 12:03:57.361   [WRN] Failed request to https://data.tradingview.com/ping
2024-08-21 12:07:46.50    [DBG] RemoteInstanceManager.cleanSubscriptions()
2024-08-21 12:09:17.317   [DBG] AppEventsService.focusWebContent()
2024-08-21 12:12:36.403   [DBG] Platform requested tvd:get-theme-setting
2024-08-21 12:12:36.632   [DBG] Platform requested tvd:get-theme-setting
2024-08-21 12:12:46.51    [DBG] RemoteInstanceManager.cleanSubscriptions()
2024-08-21 12:17:46.51    [DBG] RemoteInstanceManager.cleanSubscriptions()
2024-08-21 12:22:46.52    [DBG] RemoteInstanceManager.cleanSubscriptions()
2024-08-21 12:27:46.53    [DBG] RemoteInstanceManager.cleanSubscriptions()
2024-08-21 12:32:46.56    [DBG] RemoteInstanceManager.cleanSubscriptions()
2024-08-21 12:37:46.56    [DBG] RemoteInstanceManager.cleanSubscriptions()
2024-08-21 12:42:46.56    [DBG] RemoteInstanceManager.cleanSubscriptions()
2024-08-21 12:47:46.57    [DBG] RemoteInstanceManager.cleanSubscriptions()
2024-08-21 12:52:46.57    [DBG] RemoteInstanceManager.cleanSubscriptions()
2024-08-21 12:57:46.58    [DBG] RemoteInstanceManager.cleanSubscriptions()
2024-08-21 13:02:46.58    [DBG] RemoteInstanceManager.cleanSubscriptions()
2024-08-21 13:03:47.524   [WRN] Failed request to https://data.tradingview.com/ping
2024-08-21 13:07:46.59    [DBG] RemoteInstanceManager.cleanSubscriptions()
2024-08-21 13:12:46.59    [DBG] RemoteInstanceManager.cleanSubscriptions()
2024-08-21 13:17:46.59    [DBG] RemoteInstanceManager.cleanSubscriptions()
2024-08-21 13:22:46.59    [DBG] RemoteInstanceManager.cleanSubscriptions()
2024-08-21 13:27:46.60    [DBG] RemoteInstanceManager.cleanSubscriptions()
2024-08-21 13:32:46.60    [DBG] RemoteInstanceManager.cleanSubscriptions()
2024-08-21 13:37:46.60    [DBG] RemoteInstanceManager.cleanSubscriptions()
2024-08-21 13:40:16.474   [DBG] Platform requested tvd:get-theme-setting
2024-08-21 13:42:46.61    [DBG] RemoteInstanceManager.cleanSubscriptions()
2024-08-21 13:47:46.61    [DBG] RemoteInstanceManager.cleanSubscriptions()
2024-08-21 13:52:46.63    [DBG] RemoteInstanceManager.cleanSubscriptions()
2024-08-21 13:57:46.63    [DBG] RemoteInstanceManager.cleanSubscriptions()
2024-08-21 14:02:46.66    [DBG] RemoteInstanceManager.cleanSubscriptions()
2024-08-21 14:07:46.66    [DBG] RemoteInstanceManager.cleanSubscriptions()
2024-08-21 14:12:46.66    [DBG] RemoteInstanceManager.cleanSubscriptions()
2024-08-21 14:17:46.66    [DBG] RemoteInstanceManager.cleanSubscriptions()
2024-08-21 14:22:46.66    [DBG] RemoteInstanceManager.cleanSubscriptions()
2024-08-21 14:27:46.67    [DBG] RemoteInstanceManager.cleanSubscriptions()
2024-08-21 14:32:46.68    [DBG] RemoteInstanceManager.cleanSubscriptions()
2024-08-21 14:37:46.68    [DBG] RemoteInstanceManager.cleanSubscriptions()
2024-08-21 14:42:46.68    [DBG] RemoteInstanceManager.cleanSubscriptions()
2024-08-21 14:47:46.70    [DBG] RemoteInstanceManager.cleanSubscriptions()
2024-08-21 14:52:46.71    [DBG] RemoteInstanceManager.cleanSubscriptions()
2024-08-21 14:57:46.72    [DBG] RemoteInstanceManager.cleanSubscriptions()
2024-08-21 15:02:46.72    [DBG] RemoteInstanceManager.cleanSubscriptions()
2024-08-21 15:06:27.842   [WRN] Failed request to https://data.tradingview.com/ping
2024-08-21 15:06:37.840   [WRN] Failed request to https://data.tradingview.com/ping
2024-08-21 15:07:07.842   [WRN] Failed request to https://data.tradingview.com/ping
2024-08-21 15:07:27.844   [WRN] Failed request to https://data.tradingview.com/ping
2024-08-21 15:07:37.845   [WRN] Failed request to https://data.tradingview.com/ping
2024-08-21 15:07:46.72    [DBG] RemoteInstanceManager.cleanSubscriptions()
2024-08-21 15:07:47.846   [WRN] Failed request to https://data.tradingview.com/ping
2024-08-21 15:07:57.846   [WRN] Failed request to https://data.tradingview.com/ping
2024-08-21 15:08:07.847   [WRN] Failed request to https://data.tradingview.com/ping
2024-08-21 15:08:17.846   [WRN] Failed request to https://data.tradingview.com/ping
2024-08-21 15:08:37.850   [WRN] Failed request to https://data.tradingview.com/ping
2024-08-21 15:08:47.850   [WRN] Failed request to https://data.tradingview.com/ping
2024-08-21 15:08:57.850   [WRN] Failed request to https://data.tradingview.com/ping
2024-08-21 15:09:07.851   [WRN] Failed request to https://data.tradingview.com/ping
2024-08-21 15:09:17.851   [WRN] Failed request to https://data.tradingview.com/ping
2024-08-21 15:09:47.853   [WRN] Failed request to https://data.tradingview.com/ping
2024-08-21 15:09:57.854   [WRN] Failed request to https://data.tradingview.com/ping
2024-08-21 15:10:07.853   [WRN] Failed request to https://data.tradingview.com/ping
2024-08-21 15:10:47.855   [WRN] Failed request to https://data.tradingview.com/ping
2024-08-21 15:10:57.855   [WRN] Failed request to https://data.tradingview.com/ping
2024-08-21 15:12:46.73    [DBG] RemoteInstanceManager.cleanSubscriptions()
2024-08-21 15:17:46.73    [DBG] RemoteInstanceManager.cleanSubscriptions()
2024-08-21 15:22:46.74    [DBG] RemoteInstanceManager.cleanSubscriptions()
2024-08-21 15:26:05.282   [DBG] AppEventsService.focusWebContent()
2024-08-21 15:27:46.75    [DBG] RemoteInstanceManager.cleanSubscriptions()
2024-08-21 15:32:46.75    [DBG] RemoteInstanceManager.cleanSubscriptions()
2024-08-21 15:35:06.790   [DBG] AppEventsService.focusWebContent()
2024-08-21 15:37:46.75    [DBG] RemoteInstanceManager.cleanSubscriptions()
2024-08-21 15:40:06.791   [DBG] PersistenceService.store()
2024-08-21 15:40:06.791   [DBG] LinkingService.internalExtractState()
2024-08-21 15:40:06.791   [DBG] PersistentArrayProxy.internalExtractState()
2024-08-21 15:40:06.791   [DBG] [c6194629] TabbedWindowBase.internalExtractState()
2024-08-21 15:40:06.791   [DBG] [c6194629] TabbedWindowBase.makeStateSnapshot()
2024-08-21 15:40:06.792   [DBG] [6ce205cd] TabbedWindowBase.internalExtractState()
2024-08-21 15:40:06.792   [DBG] [6ce205cd] TabbedWindowBase.makeStateSnapshot()
2024-08-21 15:40:06.792   [DBG] LinkingService.internalExtractState()
2024-08-21 15:40:06.792   [DBG] PersistentArrayProxy.internalExtractState()
2024-08-21 15:40:06.792   [DBG] [c6194629] TabbedWindowBase.internalExtractState()
2024-08-21 15:40:06.792   [DBG] [c6194629] TabbedWindowBase.makeStateSnapshot()
2024-08-21 15:40:06.793   [DBG] [6ce205cd] TabbedWindowBase.internalExtractState()
2024-08-21 15:40:06.793   [DBG] [6ce205cd] TabbedWindowBase.makeStateSnapshot()
2024-08-21 15:40:06.793   [DBG] TrackEventService.setAppWindowsData()
2024-08-21 15:40:06.793   [DBG] FileBasedStorage.store()
2024-08-21 15:42:46.75    [DBG] RemoteInstanceManager.cleanSubscriptions()
2024-08-21 15:47:46.75    [DBG] RemoteInstanceManager.cleanSubscriptions()
2024-08-21 15:52:46.76    [DBG] RemoteInstanceManager.cleanSubscriptions()
2024-08-21 15:57:46.76    [DBG] RemoteInstanceManager.cleanSubscriptions()
2024-08-21 16:02:46.76    [DBG] RemoteInstanceManager.cleanSubscriptions()
2024-08-21 16:07:46.77    [DBG] RemoteInstanceManager.cleanSubscriptions()
2024-08-21 16:12:46.78    [DBG] RemoteInstanceManager.cleanSubscriptions()
2024-08-21 16:17:46.78    [DBG] RemoteInstanceManager.cleanSubscriptions()
2024-08-21 16:21:58.45    [WRN] Failed request to https://data.tradingview.com/ping
2024-08-21 16:22:46.78    [DBG] RemoteInstanceManager.cleanSubscriptions()
2024-08-21 16:27:46.78    [DBG] RemoteInstanceManager.cleanSubscriptions()
2024-08-21 16:32:46.78    [DBG] RemoteInstanceManager.cleanSubscriptions()
2024-08-21 16:37:46.78    [DBG] RemoteInstanceManager.cleanSubscriptions()
2024-08-21 16:42:46.80    [DBG] RemoteInstanceManager.cleanSubscriptions()
2024-08-21 16:47:46.80    [DBG] RemoteInstanceManager.cleanSubscriptions()
2024-08-21 16:52:46.80    [DBG] RemoteInstanceManager.cleanSubscriptions()
2024-08-21 16:57:46.80    [DBG] RemoteInstanceManager.cleanSubscriptions()
2024-08-21 17:02:46.80    [DBG] RemoteInstanceManager.cleanSubscriptions()
2024-08-21 17:07:46.80    [DBG] RemoteInstanceManager.cleanSubscriptions()
2024-08-21 17:12:46.80    [DBG] RemoteInstanceManager.cleanSubscriptions()
2024-08-21 17:17:46.80    [DBG] RemoteInstanceManager.cleanSubscriptions()
2024-08-21 17:22:46.80    [DBG] RemoteInstanceManager.cleanSubscriptions()
2024-08-21 17:27:46.81    [DBG] RemoteInstanceManager.cleanSubscriptions()
2024-08-21 17:32:46.81    [DBG] RemoteInstanceManager.cleanSubscriptions()
2024-08-21 17:37:46.81    [DBG] RemoteInstanceManager.cleanSubscriptions()
2024-08-21 17:41:57.961   [DBG] AppEventsService.focusWebContent()
2024-08-21 17:42:46.82    [DBG] RemoteInstanceManager.cleanSubscriptions()
2024-08-21 17:47:46.83    [DBG] RemoteInstanceManager.cleanSubscriptions()
2024-08-21 17:52:46.83    [DBG] RemoteInstanceManager.cleanSubscriptions()
2024-08-21 17:57:46.83    [DBG] RemoteInstanceManager.cleanSubscriptions()
2024-08-21 18:02:46.83    [DBG] RemoteInstanceManager.cleanSubscriptions()
2024-08-21 18:07:46.84    [DBG] RemoteInstanceManager.cleanSubscriptions()
2024-08-21 18:12:46.85    [DBG] RemoteInstanceManager.cleanSubscriptions()
2024-08-21 18:17:46.85    [DBG] RemoteInstanceManager.cleanSubscriptions()
2024-08-21 18:22:46.85    [DBG] RemoteInstanceManager.cleanSubscriptions()
2024-08-21 18:27:46.85    [DBG] RemoteInstanceManager.cleanSubscriptions()
2024-08-21 18:32:46.87    [DBG] RemoteInstanceManager.cleanSubscriptions()
2024-08-21 18:37:46.86    [DBG] RemoteInstanceManager.cleanSubscriptions()
2024-08-21 18:42:46.87    [DBG] RemoteInstanceManager.cleanSubscriptions()
2024-08-21 18:47:46.87    [DBG] RemoteInstanceManager.cleanSubscriptions()
2024-08-21 18:52:46.87    [DBG] RemoteInstanceManager.cleanSubscriptions()
2024-08-21 18:57:46.88    [DBG] RemoteInstanceManager.cleanSubscriptions()
2024-08-21 19:02:46.88    [DBG] RemoteInstanceManager.cleanSubscriptions()
2024-08-21 19:07:46.89    [DBG] RemoteInstanceManager.cleanSubscriptions()
2024-08-21 19:12:46.89    [DBG] RemoteInstanceManager.cleanSubscriptions()
2024-08-21 19:17:46.89    [DBG] RemoteInstanceManager.cleanSubscriptions()
2024-08-21 19:22:46.89    [DBG] RemoteInstanceManager.cleanSubscriptions()
2024-08-21 19:27:46.91    [DBG] RemoteInstanceManager.cleanSubscriptions()
2024-08-21 19:32:46.92    [DBG] RemoteInstanceManager.cleanSubscriptions()
2024-08-21 19:37:46.93    [DBG] RemoteInstanceManager.cleanSubscriptions()
2024-08-21 19:42:46.94    [DBG] RemoteInstanceManager.cleanSubscriptions()
2024-08-21 19:47:46.94    [DBG] RemoteInstanceManager.cleanSubscriptions()
2024-08-21 19:52:46.95    [DBG] RemoteInstanceManager.cleanSubscriptions()
2024-08-21 19:57:46.96    [DBG] RemoteInstanceManager.cleanSubscriptions()
2024-08-21 20:02:46.97    [DBG] RemoteInstanceManager.cleanSubscriptions()
2024-08-21 20:07:46.97    [DBG] RemoteInstanceManager.cleanSubscriptions()
2024-08-21 20:12:46.97    [DBG] RemoteInstanceManager.cleanSubscriptions()
2024-08-21 20:17:46.97    [DBG] RemoteInstanceManager.cleanSubscriptions()
2024-08-21 20:22:46.98    [DBG] RemoteInstanceManager.cleanSubscriptions()
2024-08-21 20:27:46.99    [DBG] RemoteInstanceManager.cleanSubscriptions()
2024-08-21 20:29:58.726   [WRN] Failed request to https://data.tradingview.com/ping
2024-08-21 20:30:08.726   [WRN] Failed request to https://data.tradingview.com/ping
2024-08-21 20:30:18.727   [WRN] Failed request to https://data.tradingview.com/ping
2024-08-21 20:30:58.731   [WRN] Failed request to https://data.tradingview.com/ping
2024-08-21 20:31:08.730   [WRN] Failed request to https://data.tradingview.com/ping
2024-08-21 20:31:18.730   [WRN] Failed request to https://data.tradingview.com/ping
2024-08-21 20:32:46.99    [DBG] RemoteInstanceManager.cleanSubscriptions()
2024-08-21 20:34:18.741   [WRN] Failed request to https://data.tradingview.com/ping
2024-08-21 20:34:28.741   [WRN] Failed request to https://data.tradingview.com/ping
2024-08-21 20:34:58.743   [WRN] Failed request to https://data.tradingview.com/ping
2024-08-21 20:35:28.745   [WRN] Failed request to https://data.tradingview.com/ping
2024-08-21 20:35:38.745   [WRN] Failed request to https://data.tradingview.com/ping
2024-08-21 20:37:08.751   [WRN] Failed request to https://data.tradingview.com/ping
2024-08-21 20:37:18.751   [WRN] Failed request to https://data.tradingview.com/ping
2024-08-21 20:37:46.99    [DBG] RemoteInstanceManager.cleanSubscriptions()
2024-08-21 20:37:58.754   [WRN] Failed request to https://data.tradingview.com/ping
2024-08-21 20:38:08.753   [WRN] Failed request to https://data.tradingview.com/ping
2024-08-21 20:38:18.755   [WRN] Failed request to https://data.tradingview.com/ping
2024-08-21 20:38:28.755   [WRN] Failed request to https://data.tradingview.com/ping
2024-08-21 20:38:38.757   [WRN] Failed request to https://data.tradingview.com/ping
2024-08-21 20:38:48.757   [WRN] Failed request to https://data.tradingview.com/ping
2024-08-21 20:41:48.762   [WRN] Failed request to https://data.tradingview.com/ping
2024-08-21 20:41:58.761   [WRN] Failed request to https://data.tradingview.com/ping
2024-08-21 20:42:08.760   [WRN] Failed request to https://data.tradingview.com/ping
2024-08-21 20:42:28.762   [WRN] Failed request to https://data.tradingview.com/ping
2024-08-21 20:42:38.763   [WRN] Failed request to https://data.tradingview.com/ping
2024-08-21 20:42:46.99    [DBG] RemoteInstanceManager.cleanSubscriptions()
2024-08-21 20:42:48.764   [WRN] Failed request to https://data.tradingview.com/ping
2024-08-21 20:42:58.763   [WRN] Failed request to https://data.tradingview.com/ping
2024-08-21 20:43:08.764   [WRN] Failed request to https://data.tradingview.com/ping
2024-08-21 20:45:38.776   [WRN] Failed request to https://data.tradingview.com/ping
2024-08-21 20:45:48.775   [WRN] Failed request to https://data.tradingview.com/ping
2024-08-21 20:45:58.775   [WRN] Failed request to https://data.tradingview.com/ping
2024-08-21 20:46:28.777   [WRN] Failed request to https://data.tradingview.com/ping
2024-08-21 20:46:38.777   [WRN] Failed request to https://data.tradingview.com/ping
2024-08-21 20:46:48.778   [WRN] Failed request to https://data.tradingview.com/ping
2024-08-21 20:46:58.776   [WRN] Failed request to https://data.tradingview.com/ping
2024-08-21 20:47:08.777   [WRN] Failed request to https://data.tradingview.com/ping
2024-08-21 20:47:18.777   [WRN] Failed request to https://data.tradingview.com/ping
2024-08-21 20:47:46.100   [DBG] RemoteInstanceManager.cleanSubscriptions()
2024-08-21 20:49:28.783   [WRN] Failed request to https://data.tradingview.com/ping
2024-08-21 20:49:38.786   [WRN] Failed request to https://data.tradingview.com/ping
2024-08-21 20:50:18.788   [WRN] Failed request to https://data.tradingview.com/ping
2024-08-21 20:50:28.788   [WRN] Failed request to https://data.tradingview.com/ping
2024-08-21 20:50:38.789   [WRN] Failed request to https://data.tradingview.com/ping
2024-08-21 20:50:48.790   [WRN] Failed request to https://data.tradingview.com/ping
2024-08-21 20:50:58.791   [WRN] Failed request to https://data.tradingview.com/ping
2024-08-21 20:51:08.790   [WRN] Failed request to https://data.tradingview.com/ping
2024-08-21 20:51:18.790   [WRN] Failed request to https://data.tradingview.com/ping
2024-08-21 20:51:28.791   [WRN] Failed request to https://data.tradingview.com/ping
2024-08-21 20:51:38.791   [WRN] Failed request to https://data.tradingview.com/ping
2024-08-21 20:51:48.791   [WRN] Failed request to https://data.tradingview.com/ping
2024-08-21 20:51:58.792   [WRN] Failed request to https://data.tradingview.com/ping
2024-08-21 20:52:46.100   [DBG] RemoteInstanceManager.cleanSubscriptions()
2024-08-21 20:54:18.798   [WRN] Failed request to https://data.tradingview.com/ping
2024-08-21 20:54:28.797   [WRN] Failed request to https://data.tradingview.com/ping
2024-08-21 20:56:38.804   [WRN] Failed request to https://data.tradingview.com/ping
2024-08-21 20:56:48.803   [WRN] Failed request to https://data.tradingview.com/ping
2024-08-21 20:57:46.100   [DBG] RemoteInstanceManager.cleanSubscriptions()
2024-08-21 20:58:08.808   [WRN] Failed request to https://data.tradingview.com/ping
2024-08-21 20:58:18.809   [WRN] Failed request to https://data.tradingview.com/ping
2024-08-21 20:59:28.810   [WRN] Failed request to https://data.tradingview.com/ping
2024-08-21 20:59:38.809   [WRN] Failed request to https://data.tradingview.com/ping
2024-08-21 20:59:48.811   [WRN] Failed request to https://data.tradingview.com/ping
2024-08-21 20:59:58.811   [WRN] Failed request to https://data.tradingview.com/ping
2024-08-21 21:00:08.813   [WRN] Failed request to https://data.tradingview.com/ping
2024-08-21 21:01:28.817   [WRN] Failed request to https://data.tradingview.com/ping
2024-08-21 21:01:38.817   [WRN] Failed request to https://data.tradingview.com/ping
2024-08-21 21:02:46.101   [DBG] RemoteInstanceManager.cleanSubscriptions()
2024-08-21 21:07:46.101   [DBG] RemoteInstanceManager.cleanSubscriptions()
2024-08-21 21:12:46.102   [DBG] RemoteInstanceManager.cleanSubscriptions()
2024-08-21 21:17:46.102   [DBG] RemoteInstanceManager.cleanSubscriptions()
2024-08-21 21:22:46.103   [DBG] RemoteInstanceManager.cleanSubscriptions()
2024-08-21 21:27:46.103   [DBG] RemoteInstanceManager.cleanSubscriptions()
2024-08-21 21:31:18.898   [WRN] Failed request to https://data.tradingview.com/ping
2024-08-21 21:32:46.104   [DBG] RemoteInstanceManager.cleanSubscriptions()
2024-08-21 21:37:46.105   [DBG] RemoteInstanceManager.cleanSubscriptions()
2024-08-21 21:42:46.105   [DBG] RemoteInstanceManager.cleanSubscriptions()
2024-08-21 21:47:46.105   [DBG] RemoteInstanceManager.cleanSubscriptions()
2024-08-21 21:52:46.105   [DBG] RemoteInstanceManager.cleanSubscriptions()
2024-08-21 21:57:46.105   [DBG] RemoteInstanceManager.cleanSubscriptions()
2024-08-21 22:02:46.105   [DBG] RemoteInstanceManager.cleanSubscriptions()
2024-08-21 22:07:46.106   [DBG] RemoteInstanceManager.cleanSubscriptions()
2024-08-21 22:12:46.108   [DBG] RemoteInstanceManager.cleanSubscriptions()
2024-08-21 22:17:46.109   [DBG] RemoteInstanceManager.cleanSubscriptions()
2024-08-21 22:22:46.109   [DBG] RemoteInstanceManager.cleanSubscriptions()
2024-08-21 22:27:46.110   [DBG] RemoteInstanceManager.cleanSubscriptions()
2024-08-21 22:31:29.73    [WRN] Failed request to https://data.tradingview.com/ping
2024-08-21 22:32:46.111   [DBG] RemoteInstanceManager.cleanSubscriptions()
2024-08-21 22:37:46.111   [DBG] RemoteInstanceManager.cleanSubscriptions()
2024-08-21 22:42:46.112   [DBG] RemoteInstanceManager.cleanSubscriptions()
2024-08-21 22:47:46.112   [DBG] RemoteInstanceManager.cleanSubscriptions()
2024-08-21 22:52:46.112   [DBG] RemoteInstanceManager.cleanSubscriptions()
2024-08-21 22:57:46.112   [DBG] RemoteInstanceManager.cleanSubscriptions()
2024-08-21 23:02:46.112   [DBG] RemoteInstanceManager.cleanSubscriptions()
2024-08-21 23:07:46.112   [DBG] RemoteInstanceManager.cleanSubscriptions()
2024-08-21 23:12:46.113   [DBG] RemoteInstanceManager.cleanSubscriptions()
2024-08-21 23:17:46.114   [DBG] RemoteInstanceManager.cleanSubscriptions()
2024-08-21 23:22:46.114   [DBG] RemoteInstanceManager.cleanSubscriptions()
2024-08-21 23:27:46.115   [DBG] RemoteInstanceManager.cleanSubscriptions()
2024-08-21 23:32:46.115   [DBG] RemoteInstanceManager.cleanSubscriptions()
2024-08-21 23:37:46.115   [DBG] RemoteInstanceManager.cleanSubscriptions()
2024-08-21 23:42:46.116   [DBG] RemoteInstanceManager.cleanSubscriptions()
2024-08-21 23:47:46.116   [DBG] RemoteInstanceManager.cleanSubscriptions()
2024-08-21 23:52:46.116   [DBG] RemoteInstanceManager.cleanSubscriptions()
2024-08-21 23:57:46.117   [DBG] RemoteInstanceManager.cleanSubscriptions()
2024-08-22 00:02:46.117   [DBG] RemoteInstanceManager.cleanSubscriptions()
2024-08-22 00:07:46.117   [DBG] RemoteInstanceManager.cleanSubscriptions()
2024-08-22 00:12:46.118   [DBG] RemoteInstanceManager.cleanSubscriptions()
2024-08-22 00:17:46.119   [DBG] RemoteInstanceManager.cleanSubscriptions()
2024-08-22 00:22:46.119   [DBG] RemoteInstanceManager.cleanSubscriptions()
2024-08-22 00:27:46.121   [DBG] RemoteInstanceManager.cleanSubscriptions()
2024-08-22 00:32:46.121   [DBG] RemoteInstanceManager.cleanSubscriptions()
2024-08-22 00:37:46.122   [DBG] RemoteInstanceManager.cleanSubscriptions()
2024-08-22 00:42:46.123   [DBG] RemoteInstanceManager.cleanSubscriptions()
2024-08-22 00:47:46.122   [DBG] RemoteInstanceManager.cleanSubscriptions()
2024-08-22 00:52:46.124   [DBG] RemoteInstanceManager.cleanSubscriptions()
2024-08-22 00:57:46.125   [DBG] RemoteInstanceManager.cleanSubscriptions()
2024-08-22 01:02:46.125   [DBG] RemoteInstanceManager.cleanSubscriptions()
2024-08-22 01:07:46.126   [DBG] RemoteInstanceManager.cleanSubscriptions()
2024-08-22 01:12:46.127   [DBG] RemoteInstanceManager.cleanSubscriptions()
2024-08-22 01:17:46.128   [DBG] RemoteInstanceManager.cleanSubscriptions()
2024-08-22 01:22:46.128   [DBG] RemoteInstanceManager.cleanSubscriptions()
2024-08-22 01:27:46.128   [DBG] RemoteInstanceManager.cleanSubscriptions()
2024-08-22 01:32:46.129   [DBG] RemoteInstanceManager.cleanSubscriptions()
2024-08-22 01:37:39.553   [WRN] Failed request to https://data.tradingview.com/ping
2024-08-22 01:37:46.130   [DBG] RemoteInstanceManager.cleanSubscriptions()
2024-08-22 01:42:46.131   [DBG] RemoteInstanceManager.cleanSubscriptions()
2024-08-22 01:47:46.132   [DBG] RemoteInstanceManager.cleanSubscriptions()
2024-08-22 01:52:46.132   [DBG] RemoteInstanceManager.cleanSubscriptions()
2024-08-22 01:57:46.132   [DBG] RemoteInstanceManager.cleanSubscriptions()
2024-08-22 02:00:29.618   [WRN] Failed request to https://data.tradingview.com/ping
2024-08-22 02:00:39.618   [WRN] Failed request to https://data.tradingview.com/ping
2024-08-22 02:01:09.619   [WRN] Failed request to https://data.tradingview.com/ping
2024-08-22 02:01:19.621   [WRN] Failed request to https://data.tradingview.com/ping
2024-08-22 02:01:29.620   [WRN] Failed request to https://data.tradingview.com/ping
2024-08-22 02:01:59.623   [WRN] Failed request to https://data.tradingview.com/ping
2024-08-22 02:02:09.621   [WRN] Failed request to https://data.tradingview.com/ping
2024-08-22 02:02:19.622   [WRN] Failed request to https://data.tradingview.com/ping
2024-08-22 02:02:29.622   [WRN] Failed request to https://data.tradingview.com/ping
2024-08-22 02:02:46.134   [DBG] RemoteInstanceManager.cleanSubscriptions()
2024-08-22 02:02:59.622   [WRN] Failed request to https://data.tradingview.com/ping
2024-08-22 02:03:09.623   [WRN] Failed request to https://data.tradingview.com/ping
2024-08-22 02:03:29.624   [WRN] Failed request to https://data.tradingview.com/ping
2024-08-22 02:03:39.624   [WRN] Failed request to https://data.tradingview.com/ping
2024-08-22 02:03:49.624   [WRN] Failed request to https://data.tradingview.com/ping
2024-08-22 02:03:59.625   [WRN] Failed request to https://data.tradingview.com/ping
2024-08-22 02:04:09.625   [WRN] Failed request to https://data.tradingview.com/ping
2024-08-22 02:04:19.624   [WRN] Failed request to https://data.tradingview.com/ping
2024-08-22 02:04:29.625   [WRN] Failed request to https://data.tradingview.com/ping
2024-08-22 02:05:09.629   [WRN] Failed request to https://data.tradingview.com/ping
2024-08-22 02:05:19.630   [WRN] Failed request to https://data.tradingview.com/ping
2024-08-22 02:05:29.629   [WRN] Failed request to https://data.tradingview.com/ping
2024-08-22 02:06:09.631   [WRN] Failed request to https://data.tradingview.com/ping
2024-08-22 02:06:19.632   [WRN] Failed request to https://data.tradingview.com/ping
2024-08-22 02:06:29.632   [WRN] Failed request to https://data.tradingview.com/ping
2024-08-22 02:07:29.634   [WRN] Failed request to https://data.tradingview.com/ping
2024-08-22 02:07:46.135   [DBG] RemoteInstanceManager.cleanSubscriptions()
2024-08-22 02:10:49.644   [WRN] Failed request to https://data.tradingview.com/ping
2024-08-22 02:10:59.643   [WRN] Failed request to https://data.tradingview.com/ping
2024-08-22 02:11:29.647   [WRN] Failed request to https://data.tradingview.com/ping
2024-08-22 02:11:39.647   [WRN] Failed request to https://data.tradingview.com/ping
2024-08-22 02:11:49.647   [WRN] Failed request to https://data.tradingview.com/ping
2024-08-22 02:11:59.649   [WRN] Failed request to https://data.tradingview.com/ping
2024-08-22 02:12:09.651   [WRN] Failed request to https://data.tradingview.com/ping
2024-08-22 02:12:19.651   [WRN] Failed request to https://data.tradingview.com/ping
2024-08-22 02:12:29.651   [WRN] Failed request to https://data.tradingview.com/ping
2024-08-22 02:12:39.651   [WRN] Failed request to https://data.tradingview.com/ping
2024-08-22 02:12:46.136   [DBG] RemoteInstanceManager.cleanSubscriptions()
2024-08-22 02:12:49.653   [WRN] Failed request to https://data.tradingview.com/ping
2024-08-22 02:13:19.655   [WRN] Failed request to https://data.tradingview.com/ping
2024-08-22 02:14:39.659   [WRN] Failed request to https://data.tradingview.com/ping
2024-08-22 02:15:59.664   [WRN] Failed request to https://data.tradingview.com/ping
2024-08-22 02:16:09.664   [WRN] Failed request to https://data.tradingview.com/ping
2024-08-22 02:16:39.665   [WRN] Failed request to https://data.tradingview.com/ping
2024-08-22 02:16:49.665   [WRN] Failed request to https://data.tradingview.com/ping
2024-08-22 02:16:59.666   [WRN] Failed request to https://data.tradingview.com/ping
2024-08-22 02:17:09.667   [WRN] Failed request to https://data.tradingview.com/ping
2024-08-22 02:17:46.136   [DBG] RemoteInstanceManager.cleanSubscriptions()
2024-08-22 02:19:19.671   [WRN] Failed request to https://data.tradingview.com/ping
2024-08-22 02:22:46.137   [DBG] RemoteInstanceManager.cleanSubscriptions()
2024-08-22 02:27:46.137   [DBG] RemoteInstanceManager.cleanSubscriptions()
2024-08-22 02:32:46.137   [DBG] RemoteInstanceManager.cleanSubscriptions()
2024-08-22 02:37:39.726   [WRN] Failed request to https://data.tradingview.com/ping
2024-08-22 02:37:46.138   [DBG] RemoteInstanceManager.cleanSubscriptions()
2024-08-22 02:42:46.138   [DBG] RemoteInstanceManager.cleanSubscriptions()
2024-08-22 02:47:46.140   [DBG] RemoteInstanceManager.cleanSubscriptions()
2024-08-22 02:52:46.141   [DBG] RemoteInstanceManager.cleanSubscriptions()
2024-08-22 02:57:46.142   [DBG] RemoteInstanceManager.cleanSubscriptions()
2024-08-22 03:02:46.142   [DBG] RemoteInstanceManager.cleanSubscriptions()
2024-08-22 03:07:46.143   [DBG] RemoteInstanceManager.cleanSubscriptions()
2024-08-22 03:12:46.143   [DBG] RemoteInstanceManager.cleanSubscriptions()
2024-08-22 03:17:46.143   [DBG] RemoteInstanceManager.cleanSubscriptions()
2024-08-22 03:21:59.838   [WRN] Failed request to https://data.tradingview.com/ping
2024-08-22 03:22:46.143   [DBG] RemoteInstanceManager.cleanSubscriptions()
2024-08-22 03:23:39.841   [WRN] Failed request to https://data.tradingview.com/ping
2024-08-22 03:25:19.844   [WRN] Failed request to https://data.tradingview.com/ping
2024-08-22 03:26:19.846   [WRN] Failed request to https://data.tradingview.com/ping
2024-08-22 03:27:09.847   [WRN] Failed request to https://data.tradingview.com/ping
2024-08-22 03:27:46.143   [DBG] RemoteInstanceManager.cleanSubscriptions()
2024-08-22 03:32:46.143   [DBG] RemoteInstanceManager.cleanSubscriptions()
2024-08-22 03:37:39.874   [WRN] Failed request to https://data.tradingview.com/ping
2024-08-22 03:37:46.144   [DBG] RemoteInstanceManager.cleanSubscriptions()
2024-08-22 03:42:46.144   [DBG] RemoteInstanceManager.cleanSubscriptions()
2024-08-22 03:47:46.145   [DBG] RemoteInstanceManager.cleanSubscriptions()
2024-08-22 03:52:46.145   [DBG] RemoteInstanceManager.cleanSubscriptions()
2024-08-22 03:57:46.145   [DBG] RemoteInstanceManager.cleanSubscriptions()
2024-08-22 04:02:46.146   [DBG] RemoteInstanceManager.cleanSubscriptions()
2024-08-22 04:07:46.146   [DBG] RemoteInstanceManager.cleanSubscriptions()
2024-08-22 04:12:46.146   [DBG] RemoteInstanceManager.cleanSubscriptions()
2024-08-22 04:17:46.146   [DBG] RemoteInstanceManager.cleanSubscriptions()
2024-08-22 04:22:46.147   [DBG] RemoteInstanceManager.cleanSubscriptions()
2024-08-22 04:27:46.147   [DBG] RemoteInstanceManager.cleanSubscriptions()
2024-08-22 04:32:46.147   [DBG] RemoteInstanceManager.cleanSubscriptions()
2024-08-22 04:37:46.147   [DBG] RemoteInstanceManager.cleanSubscriptions()
2024-08-22 04:42:46.147   [DBG] RemoteInstanceManager.cleanSubscriptions()
2024-08-22 04:47:46.148   [DBG] RemoteInstanceManager.cleanSubscriptions()
2024-08-22 04:52:46.148   [DBG] RemoteInstanceManager.cleanSubscriptions()
2024-08-22 04:57:46.149   [DBG] RemoteInstanceManager.cleanSubscriptions()
2024-08-22 05:02:46.149   [DBG] RemoteInstanceManager.cleanSubscriptions()
2024-08-22 05:07:46.149   [DBG] RemoteInstanceManager.cleanSubscriptions()
2024-08-22 05:12:46.149   [DBG] RemoteInstanceManager.cleanSubscriptions()
2024-08-22 05:17:46.150   [DBG] RemoteInstanceManager.cleanSubscriptions()
2024-08-22 05:22:46.150   [DBG] RemoteInstanceManager.cleanSubscriptions()
2024-08-22 05:27:46.150   [DBG] RemoteInstanceManager.cleanSubscriptions()
2024-08-22 05:32:46.151   [DBG] RemoteInstanceManager.cleanSubscriptions()
2024-08-22 05:37:46.151   [DBG] RemoteInstanceManager.cleanSubscriptions()
2024-08-22 05:40:50.211   [WRN] Failed request to https://data.tradingview.com/ping
2024-08-22 05:42:46.151   [DBG] RemoteInstanceManager.cleanSubscriptions()
2024-08-22 05:47:46.151   [DBG] RemoteInstanceManager.cleanSubscriptions()
2024-08-22 05:52:46.152   [DBG] RemoteInstanceManager.cleanSubscriptions()
2024-08-22 05:57:46.153   [DBG] RemoteInstanceManager.cleanSubscriptions()
2024-08-22 06:02:46.153   [DBG] RemoteInstanceManager.cleanSubscriptions()
2024-08-22 06:07:46.153   [DBG] RemoteInstanceManager.cleanSubscriptions()
2024-08-22 06:12:46.155   [DBG] RemoteInstanceManager.cleanSubscriptions()
2024-08-22 06:17:46.155   [DBG] RemoteInstanceManager.cleanSubscriptions()
2024-08-22 06:22:46.155   [DBG] RemoteInstanceManager.cleanSubscriptions()
2024-08-22 06:27:46.155   [DBG] RemoteInstanceManager.cleanSubscriptions()
2024-08-22 06:32:46.155   [DBG] RemoteInstanceManager.cleanSubscriptions()
2024-08-22 06:37:46.156   [DBG] RemoteInstanceManager.cleanSubscriptions()
2024-08-22 06:40:50.373   [WRN] Failed request to https://data.tradingview.com/ping
2024-08-22 06:41:00.373   [WRN] Failed request to https://data.tradingview.com/ping
2024-08-22 06:42:46.156   [DBG] RemoteInstanceManager.cleanSubscriptions()
2024-08-22 06:47:46.157   [DBG] RemoteInstanceManager.cleanSubscriptions()
2024-08-22 06:52:46.159   [DBG] RemoteInstanceManager.cleanSubscriptions()
2024-08-22 06:57:46.159   [DBG] RemoteInstanceManager.cleanSubscriptions()
2024-08-22 07:02:46.161   [DBG] RemoteInstanceManager.cleanSubscriptions()
2024-08-22 07:07:46.162   [DBG] RemoteInstanceManager.cleanSubscriptions()
2024-08-22 07:12:46.162   [DBG] RemoteInstanceManager.cleanSubscriptions()
2024-08-22 07:17:46.163   [DBG] RemoteInstanceManager.cleanSubscriptions()
2024-08-22 07:22:46.164   [DBG] RemoteInstanceManager.cleanSubscriptions()
2024-08-22 07:27:46.165   [DBG] RemoteInstanceManager.cleanSubscriptions()
2024-08-22 07:30:00.495   [WRN] Failed request to https://data.tradingview.com/ping
2024-08-22 07:31:00.501   [WRN] Failed request to https://data.tradingview.com/ping
2024-08-22 07:31:50.503   [WRN] Failed request to https://data.tradingview.com/ping
2024-08-22 07:32:00.503   [WRN] Failed request to https://data.tradingview.com/ping
2024-08-22 07:32:10.503   [WRN] Failed request to https://data.tradingview.com/ping
2024-08-22 07:32:20.503   [WRN] Failed request to https://data.tradingview.com/ping
2024-08-22 07:32:30.504   [WRN] Failed request to https://data.tradingview.com/ping
2024-08-22 07:32:46.165   [DBG] RemoteInstanceManager.cleanSubscriptions()
2024-08-22 07:33:00.505   [WRN] Failed request to https://data.tradingview.com/ping
2024-08-22 07:33:10.507   [WRN] Failed request to https://data.tradingview.com/ping
2024-08-22 07:33:20.506   [WRN] Failed request to https://data.tradingview.com/ping
2024-08-22 07:33:30.507   [WRN] Failed request to https://data.tradingview.com/ping
2024-08-22 07:33:40.508   [WRN] Failed request to https://data.tradingview.com/ping
2024-08-22 07:33:50.506   [WRN] Failed request to https://data.tradingview.com/ping
2024-08-22 07:34:00.506   [WRN] Failed request to https://data.tradingview.com/ping
2024-08-22 07:34:10.508   [WRN] Failed request to https://data.tradingview.com/ping
2024-08-22 07:34:20.508   [WRN] Failed request to https://data.tradingview.com/ping
2024-08-22 07:37:10.513   [WRN] Failed request to https://data.tradingview.com/ping
2024-08-22 07:37:46.165   [DBG] RemoteInstanceManager.cleanSubscriptions()
2024-08-22 07:41:00.521   [WRN] Failed request to https://data.tradingview.com/ping
2024-08-22 07:41:09.524   [WRN] Failed request to https://data.tradingview.com/ping
2024-08-22 07:42:46.165   [DBG] RemoteInstanceManager.cleanSubscriptions()
2024-08-22 07:47:46.165   [DBG] RemoteInstanceManager.cleanSubscriptions()
2024-08-22 07:52:46.165   [DBG] RemoteInstanceManager.cleanSubscriptions()
2024-08-22 07:57:46.166   [DBG] RemoteInstanceManager.cleanSubscriptions()
2024-08-22 08:02:46.166   [DBG] RemoteInstanceManager.cleanSubscriptions()
2024-08-22 08:07:46.166   [DBG] RemoteInstanceManager.cleanSubscriptions()
2024-08-22 08:12:46.166   [DBG] RemoteInstanceManager.cleanSubscriptions()
2024-08-22 08:17:46.166   [DBG] RemoteInstanceManager.cleanSubscriptions()
2024-08-22 08:22:46.167   [DBG] RemoteInstanceManager.cleanSubscriptions()
2024-08-22 08:27:46.167   [DBG] RemoteInstanceManager.cleanSubscriptions()
2024-08-22 08:31:20.650   [WRN] Failed request to https://data.tradingview.com/ping
2024-08-22 08:32:46.167   [DBG] RemoteInstanceManager.cleanSubscriptions()
2024-08-22 08:37:46.168   [DBG] RemoteInstanceManager.cleanSubscriptions()
2024-08-22 08:42:46.168   [DBG] RemoteInstanceManager.cleanSubscriptions()
2024-08-22 08:47:46.168   [DBG] RemoteInstanceManager.cleanSubscriptions()
2024-08-22 08:52:46.168   [DBG] RemoteInstanceManager.cleanSubscriptions()
2024-08-22 08:57:46.168   [DBG] RemoteInstanceManager.cleanSubscriptions()
2024-08-22 09:02:46.168   [DBG] RemoteInstanceManager.cleanSubscriptions()
2024-08-22 09:07:46.168   [DBG] RemoteInstanceManager.cleanSubscriptions()
2024-08-22 09:11:52.647   [DBG] Platform requested tvd:get-theme-setting
2024-08-22 09:12:46.168   [DBG] RemoteInstanceManager.cleanSubscriptions()
2024-08-22 09:17:46.168   [DBG] RemoteInstanceManager.cleanSubscriptions()
2024-08-22 09:22:46.169   [DBG] RemoteInstanceManager.cleanSubscriptions()
2024-08-22 09:27:46.169   [DBG] RemoteInstanceManager.cleanSubscriptions()
2024-08-22 09:32:46.170   [DBG] RemoteInstanceManager.cleanSubscriptions()
2024-08-22 09:37:46.171   [DBG] RemoteInstanceManager.cleanSubscriptions()
2024-08-22 09:42:46.171   [DBG] RemoteInstanceManager.cleanSubscriptions()
2024-08-22 09:47:46.172   [DBG] RemoteInstanceManager.cleanSubscriptions()
2024-08-22 09:52:46.172   [DBG] RemoteInstanceManager.cleanSubscriptions()
2024-08-22 09:57:46.172   [DBG] RemoteInstanceManager.cleanSubscriptions()
2024-08-22 10:02:46.172   [DBG] RemoteInstanceManager.cleanSubscriptions()
2024-08-22 10:07:46.173   [DBG] RemoteInstanceManager.cleanSubscriptions()
2024-08-22 10:12:46.172   [DBG] RemoteInstanceManager.cleanSubscriptions()
2024-08-22 10:17:46.174   [DBG] RemoteInstanceManager.cleanSubscriptions()
2024-08-22 10:22:46.174   [DBG] RemoteInstanceManager.cleanSubscriptions()
2024-08-22 10:27:46.174   [DBG] RemoteInstanceManager.cleanSubscriptions()
2024-08-22 10:32:46.174   [DBG] RemoteInstanceManager.cleanSubscriptions()
2024-08-22 10:37:46.174   [DBG] RemoteInstanceManager.cleanSubscriptions()
2024-08-22 10:42:46.176   [DBG] RemoteInstanceManager.cleanSubscriptions()
2024-08-22 10:47:46.176   [DBG] RemoteInstanceManager.cleanSubscriptions()
2024-08-22 10:52:46.176   [DBG] RemoteInstanceManager.cleanSubscriptions()
2024-08-22 10:57:46.177   [DBG] RemoteInstanceManager.cleanSubscriptions()
2024-08-22 11:02:46.177   [DBG] RemoteInstanceManager.cleanSubscriptions()
2024-08-22 11:07:46.177   [DBG] RemoteInstanceManager.cleanSubscriptions()
2024-08-22 11:12:46.177   [DBG] RemoteInstanceManager.cleanSubscriptions()
2024-08-22 11:17:46.177   [DBG] RemoteInstanceManager.cleanSubscriptions()
2024-08-22 11:22:46.178   [DBG] RemoteInstanceManager.cleanSubscriptions()
2024-08-22 11:27:46.178   [DBG] RemoteInstanceManager.cleanSubscriptions()
2024-08-22 11:32:46.180   [DBG] RemoteInstanceManager.cleanSubscriptions()
2024-08-22 11:37:46.181   [DBG] RemoteInstanceManager.cleanSubscriptions()
2024-08-22 11:42:46.181   [DBG] RemoteInstanceManager.cleanSubscriptions()
2024-08-22 11:47:30.716   [DBG] AppEventsService.focusWebContent()
2024-08-22 11:47:46.181   [DBG] RemoteInstanceManager.cleanSubscriptions()
2024-08-22 11:52:46.181   [DBG] RemoteInstanceManager.cleanSubscriptions()
2024-08-22 11:57:46.183   [DBG] RemoteInstanceManager.cleanSubscriptions()
2024-08-22 12:02:46.183   [DBG] RemoteInstanceManager.cleanSubscriptions()
2024-08-22 12:07:46.183   [DBG] RemoteInstanceManager.cleanSubscriptions()
2024-08-22 12:11:09.940   [DBG] AppEventsService.focusWebContent()
2024-08-22 12:11:12.105   [DBG] AppEventsService.focusWebContent()
2024-08-22 12:12:46.183   [DBG] RemoteInstanceManager.cleanSubscriptions()
2024-08-22 12:17:46.184   [DBG] RemoteInstanceManager.cleanSubscriptions()
2024-08-22 12:22:46.184   [DBG] RemoteInstanceManager.cleanSubscriptions()
2024-08-22 12:27:46.184   [DBG] RemoteInstanceManager.cleanSubscriptions()
2024-08-22 12:32:46.185   [DBG] RemoteInstanceManager.cleanSubscriptions()
2024-08-22 12:37:46.185   [DBG] RemoteInstanceManager.cleanSubscriptions()
2024-08-22 12:42:46.186   [DBG] RemoteInstanceManager.cleanSubscriptions()
2024-08-22 12:47:46.185   [DBG] RemoteInstanceManager.cleanSubscriptions()
2024-08-22 12:52:46.186   [DBG] RemoteInstanceManager.cleanSubscriptions()
2024-08-22 12:57:46.187   [DBG] RemoteInstanceManager.cleanSubscriptions()
2024-08-22 13:02:46.187   [DBG] RemoteInstanceManager.cleanSubscriptions()
2024-08-22 13:07:46.187   [DBG] RemoteInstanceManager.cleanSubscriptions()
2024-08-22 13:12:46.188   [DBG] RemoteInstanceManager.cleanSubscriptions()
2024-08-22 13:17:46.188   [DBG] RemoteInstanceManager.cleanSubscriptions()
2024-08-22 13:22:46.189   [DBG] RemoteInstanceManager.cleanSubscriptions()
2024-08-22 13:27:46.189   [DBG] RemoteInstanceManager.cleanSubscriptions()
2024-08-22 13:32:46.189   [DBG] RemoteInstanceManager.cleanSubscriptions()
2024-08-22 13:37:46.190   [DBG] RemoteInstanceManager.cleanSubscriptions()
2024-08-22 13:42:46.190   [DBG] RemoteInstanceManager.cleanSubscriptions()
2024-08-22 13:44:47.57    [DBG] AppEventsService.focusWebContent()
2024-08-22 13:47:46.192   [DBG] RemoteInstanceManager.cleanSubscriptions()
2024-08-22 13:52:46.192   [DBG] RemoteInstanceManager.cleanSubscriptions()
2024-08-22 13:57:46.192   [DBG] RemoteInstanceManager.cleanSubscriptions()
2024-08-22 13:58:00.756   [DBG] AppEventsService.focusWebContent()
2024-08-22 14:00:12.376   [DBG] AppEventsService.focusWebContent()
2024-08-22 14:02:46.194   [DBG] RemoteInstanceManager.cleanSubscriptions()
2024-08-22 14:05:12.379   [DBG] PersistenceService.store()
2024-08-22 14:05:12.379   [DBG] LinkingService.internalExtractState()
2024-08-22 14:05:12.380   [DBG] PersistentArrayProxy.internalExtractState()
2024-08-22 14:05:12.380   [DBG] [c6194629] TabbedWindowBase.internalExtractState()
2024-08-22 14:05:12.380   [DBG] [c6194629] TabbedWindowBase.makeStateSnapshot()
2024-08-22 14:05:12.380   [DBG] [6ce205cd] TabbedWindowBase.internalExtractState()
2024-08-22 14:05:12.380   [DBG] [6ce205cd] TabbedWindowBase.makeStateSnapshot()
2024-08-22 14:05:12.381   [DBG] LinkingService.internalExtractState()
2024-08-22 14:05:12.381   [DBG] PersistentArrayProxy.internalExtractState()
2024-08-22 14:05:12.381   [DBG] [c6194629] TabbedWindowBase.internalExtractState()
2024-08-22 14:05:12.381   [DBG] [c6194629] TabbedWindowBase.makeStateSnapshot()
2024-08-22 14:05:12.381   [DBG] [6ce205cd] TabbedWindowBase.internalExtractState()
2024-08-22 14:05:12.381   [DBG] [6ce205cd] TabbedWindowBase.makeStateSnapshot()
2024-08-22 14:05:12.381   [DBG] TrackEventService.setAppWindowsData()
2024-08-22 14:05:12.381   [DBG] FileBasedStorage.store()
2024-08-22 14:07:46.194   [DBG] RemoteInstanceManager.cleanSubscriptions()
2024-08-22 14:12:46.194   [DBG] RemoteInstanceManager.cleanSubscriptions()
2024-08-22 14:17:46.194   [DBG] RemoteInstanceManager.cleanSubscriptions()
2024-08-22 14:22:46.194   [DBG] RemoteInstanceManager.cleanSubscriptions()
2024-08-22 14:27:46.194   [DBG] RemoteInstanceManager.cleanSubscriptions()
2024-08-22 14:32:46.195   [DBG] RemoteInstanceManager.cleanSubscriptions()
2024-08-22 14:37:46.195   [DBG] RemoteInstanceManager.cleanSubscriptions()
2024-08-22 14:40:14.145   [DBG] AppEventsService.focusWebContent()
2024-08-22 14:42:46.195   [DBG] RemoteInstanceManager.cleanSubscriptions()
2024-08-22 14:47:46.195   [DBG] RemoteInstanceManager.cleanSubscriptions()
2024-08-22 14:52:46.196   [DBG] RemoteInstanceManager.cleanSubscriptions()
2024-08-22 14:57:46.195   [DBG] RemoteInstanceManager.cleanSubscriptions()
2024-08-22 15:02:46.196   [DBG] RemoteInstanceManager.cleanSubscriptions()
2024-08-22 15:07:46.197   [DBG] RemoteInstanceManager.cleanSubscriptions()
2024-08-22 15:12:46.198   [DBG] RemoteInstanceManager.cleanSubscriptions()
2024-08-22 15:17:46.198   [DBG] RemoteInstanceManager.cleanSubscriptions()
2024-08-22 15:22:46.199   [DBG] RemoteInstanceManager.cleanSubscriptions()
2024-08-22 15:27:46.199   [DBG] RemoteInstanceManager.cleanSubscriptions()
2024-08-22 15:32:46.200   [DBG] RemoteInstanceManager.cleanSubscriptions()
2024-08-22 15:37:46.200   [DBG] RemoteInstanceManager.cleanSubscriptions()
2024-08-22 15:42:46.200   [DBG] RemoteInstanceManager.cleanSubscriptions()
2024-08-22 15:47:46.200   [DBG] RemoteInstanceManager.cleanSubscriptions()
2024-08-22 15:49:52.386   [DBG] AppEventsService.focusWebContent()
2024-08-22 15:52:46.201   [DBG] RemoteInstanceManager.cleanSubscriptions()
2024-08-22 15:57:46.203   [DBG] RemoteInstanceManager.cleanSubscriptions()
2024-08-22 16:02:46.204   [DBG] RemoteInstanceManager.cleanSubscriptions()
2024-08-22 16:07:46.204   [DBG] RemoteInstanceManager.cleanSubscriptions()
2024-08-22 16:12:46.205   [DBG] RemoteInstanceManager.cleanSubscriptions()
2024-08-22 16:17:46.206   [DBG] RemoteInstanceManager.cleanSubscriptions()
2024-08-22 16:22:46.207   [DBG] RemoteInstanceManager.cleanSubscriptions()
2024-08-22 16:27:46.207   [DBG] RemoteInstanceManager.cleanSubscriptions()
2024-08-22 16:32:46.207   [DBG] RemoteInstanceManager.cleanSubscriptions()
2024-08-22 16:37:46.207   [DBG] RemoteInstanceManager.cleanSubscriptions()
2024-08-22 16:42:46.207   [DBG] RemoteInstanceManager.cleanSubscriptions()
2024-08-22 16:47:46.208   [DBG] RemoteInstanceManager.cleanSubscriptions()
2024-08-22 16:52:46.208   [DBG] RemoteInstanceManager.cleanSubscriptions()
2024-08-22 16:57:46.208   [DBG] RemoteInstanceManager.cleanSubscriptions()
2024-08-22 17:02:46.209   [DBG] RemoteInstanceManager.cleanSubscriptions()
2024-08-22 17:07:46.209   [DBG] RemoteInstanceManager.cleanSubscriptions()
2024-08-22 17:12:46.209   [DBG] RemoteInstanceManager.cleanSubscriptions()
2024-08-22 17:17:46.210   [DBG] RemoteInstanceManager.cleanSubscriptions()
2024-08-22 17:22:46.210   [DBG] RemoteInstanceManager.cleanSubscriptions()
2024-08-22 17:27:46.212   [DBG] RemoteInstanceManager.cleanSubscriptions()
2024-08-22 17:32:46.213   [DBG] RemoteInstanceManager.cleanSubscriptions()
2024-08-22 17:37:46.214   [DBG] RemoteInstanceManager.cleanSubscriptions()
2024-08-22 17:42:46.214   [DBG] RemoteInstanceManager.cleanSubscriptions()
2024-08-22 17:47:46.215   [DBG] RemoteInstanceManager.cleanSubscriptions()
2024-08-22 17:52:46.215   [DBG] RemoteInstanceManager.cleanSubscriptions()
2024-08-22 17:57:46.215   [DBG] RemoteInstanceManager.cleanSubscriptions()
2024-08-22 18:02:46.215   [DBG] RemoteInstanceManager.cleanSubscriptions()
2024-08-22 18:07:46.215   [DBG] RemoteInstanceManager.cleanSubscriptions()
2024-08-22 18:12:46.215   [DBG] RemoteInstanceManager.cleanSubscriptions()
2024-08-22 18:17:46.215   [DBG] RemoteInstanceManager.cleanSubscriptions()
2024-08-22 18:22:46.216   [DBG] RemoteInstanceManager.cleanSubscriptions()
2024-08-22 18:27:46.217   [DBG] RemoteInstanceManager.cleanSubscriptions()
2024-08-22 18:32:46.218   [DBG] RemoteInstanceManager.cleanSubscriptions()
2024-08-22 18:37:46.217   [DBG] RemoteInstanceManager.cleanSubscriptions()
2024-08-22 18:42:46.218   [DBG] RemoteInstanceManager.cleanSubscriptions()
2024-08-22 18:47:46.218   [DBG] RemoteInstanceManager.cleanSubscriptions()
2024-08-22 18:52:46.219   [DBG] RemoteInstanceManager.cleanSubscriptions()
2024-08-22 18:57:46.219   [DBG] RemoteInstanceManager.cleanSubscriptions()
2024-08-22 19:02:46.219   [DBG] RemoteInstanceManager.cleanSubscriptions()
2024-08-22 19:07:46.219   [DBG] RemoteInstanceManager.cleanSubscriptions()
2024-08-22 19:12:46.219   [DBG] RemoteInstanceManager.cleanSubscriptions()
2024-08-22 19:17:46.220   [DBG] RemoteInstanceManager.cleanSubscriptions()
2024-08-22 19:22:46.220   [DBG] RemoteInstanceManager.cleanSubscriptions()
2024-08-22 19:27:46.220   [DBG] RemoteInstanceManager.cleanSubscriptions()
2024-08-22 19:31:12.334   [WRN] Failed request to https://data.tradingview.com/ping
2024-08-22 19:32:46.220   [DBG] RemoteInstanceManager.cleanSubscriptions()
2024-08-22 19:37:46.221   [DBG] RemoteInstanceManager.cleanSubscriptions()
2024-08-22 19:42:46.222   [DBG] RemoteInstanceManager.cleanSubscriptions()
2024-08-22 19:47:46.222   [DBG] RemoteInstanceManager.cleanSubscriptions()
2024-08-22 19:52:46.222   [DBG] RemoteInstanceManager.cleanSubscriptions()
2024-08-22 19:57:46.222   [DBG] RemoteInstanceManager.cleanSubscriptions()
2024-08-22 20:02:46.222   [DBG] RemoteInstanceManager.cleanSubscriptions()
2024-08-22 20:07:46.222   [DBG] RemoteInstanceManager.cleanSubscriptions()
2024-08-22 20:12:46.223   [DBG] RemoteInstanceManager.cleanSubscriptions()
2024-08-22 20:17:46.223   [DBG] RemoteInstanceManager.cleanSubscriptions()
2024-08-22 20:22:46.224   [DBG] RemoteInstanceManager.cleanSubscriptions()
2024-08-22 20:27:46.224   [DBG] RemoteInstanceManager.cleanSubscriptions()
2024-08-22 20:32:46.225   [DBG] RemoteInstanceManager.cleanSubscriptions()
2024-08-22 20:37:46.226   [DBG] RemoteInstanceManager.cleanSubscriptions()
2024-08-22 20:42:46.226   [DBG] RemoteInstanceManager.cleanSubscriptions()
2024-08-22 20:47:46.226   [DBG] RemoteInstanceManager.cleanSubscriptions()
2024-08-22 20:52:46.229   [DBG] RemoteInstanceManager.cleanSubscriptions()
2024-08-22 20:57:46.229   [DBG] RemoteInstanceManager.cleanSubscriptions()
2024-08-22 21:02:46.230   [DBG] RemoteInstanceManager.cleanSubscriptions()
2024-08-22 21:07:46.231   [DBG] RemoteInstanceManager.cleanSubscriptions()
2024-08-22 21:12:46.231   [DBG] RemoteInstanceManager.cleanSubscriptions()
2024-08-22 21:13:38.785   [DBG] AppEventsService.focusWebContent()
2024-08-22 21:13:52.390   [DBG] Platform requested tvd:get-theme-setting
2024-08-22 21:17:46.232   [DBG] RemoteInstanceManager.cleanSubscriptions()
2024-08-22 21:22:46.232   [DBG] RemoteInstanceManager.cleanSubscriptions()
2024-08-22 21:27:46.232   [DBG] RemoteInstanceManager.cleanSubscriptions()
2024-08-22 21:32:46.233   [DBG] RemoteInstanceManager.cleanSubscriptions()
2024-08-22 21:37:46.233   [DBG] RemoteInstanceManager.cleanSubscriptions()
2024-08-22 21:42:46.234   [DBG] RemoteInstanceManager.cleanSubscriptions()
2024-08-22 21:47:46.235   [DBG] RemoteInstanceManager.cleanSubscriptions()
2024-08-22 21:52:46.236   [DBG] RemoteInstanceManager.cleanSubscriptions()
2024-08-22 21:57:46.236   [DBG] RemoteInstanceManager.cleanSubscriptions()
2024-08-22 22:02:46.236   [DBG] RemoteInstanceManager.cleanSubscriptions()
2024-08-22 22:07:46.236   [DBG] RemoteInstanceManager.cleanSubscriptions()
2024-08-22 22:12:46.236   [DBG] RemoteInstanceManager.cleanSubscriptions()
2024-08-22 22:17:46.236   [DBG] RemoteInstanceManager.cleanSubscriptions()
2024-08-22 22:22:46.237   [DBG] RemoteInstanceManager.cleanSubscriptions()
2024-08-22 22:27:46.238   [DBG] RemoteInstanceManager.cleanSubscriptions()
2024-08-22 22:32:46.238   [DBG] RemoteInstanceManager.cleanSubscriptions()
2024-08-22 22:37:46.238   [DBG] RemoteInstanceManager.cleanSubscriptions()
2024-08-22 22:42:46.239   [DBG] RemoteInstanceManager.cleanSubscriptions()
2024-08-22 22:47:46.239   [DBG] RemoteInstanceManager.cleanSubscriptions()
2024-08-22 22:52:46.239   [DBG] RemoteInstanceManager.cleanSubscriptions()
2024-08-22 22:57:46.240   [DBG] RemoteInstanceManager.cleanSubscriptions()
2024-08-22 23:02:46.241   [DBG] RemoteInstanceManager.cleanSubscriptions()
2024-08-22 23:07:46.241   [DBG] RemoteInstanceManager.cleanSubscriptions()
2024-08-22 23:08:02.970   [WRN] Failed request to https://data.tradingview.com/ping
2024-08-22 23:12:46.241   [DBG] RemoteInstanceManager.cleanSubscriptions()
2024-08-22 23:17:46.242   [DBG] RemoteInstanceManager.cleanSubscriptions()
2024-08-22 23:22:46.242   [DBG] RemoteInstanceManager.cleanSubscriptions()
2024-08-22 23:27:46.242   [DBG] RemoteInstanceManager.cleanSubscriptions()
2024-08-22 23:30:28.936   [DBG] AppEventsService.focusWebContent()
2024-08-22 23:30:50.854   [DBG] AppEventsService.focusWebContent()
2024-08-22 23:31:53.682   [DBG] AppEventsService.focusWebContent()
2024-08-22 23:32:46.242   [DBG] RemoteInstanceManager.cleanSubscriptions()
2024-08-22 23:36:53.683   [DBG] PersistenceService.store()
2024-08-22 23:36:53.684   [DBG] LinkingService.internalExtractState()
2024-08-22 23:36:53.684   [DBG] PersistentArrayProxy.internalExtractState()
2024-08-22 23:36:53.684   [DBG] [c6194629] TabbedWindowBase.internalExtractState()
2024-08-22 23:36:53.684   [DBG] [c6194629] TabbedWindowBase.makeStateSnapshot()
2024-08-22 23:36:53.686   [DBG] [6ce205cd] TabbedWindowBase.internalExtractState()
2024-08-22 23:36:53.686   [DBG] [6ce205cd] TabbedWindowBase.makeStateSnapshot()
2024-08-22 23:36:53.687   [DBG] LinkingService.internalExtractState()
2024-08-22 23:36:53.687   [DBG] PersistentArrayProxy.internalExtractState()
2024-08-22 23:36:53.687   [DBG] [c6194629] TabbedWindowBase.internalExtractState()
2024-08-22 23:36:53.687   [DBG] [c6194629] TabbedWindowBase.makeStateSnapshot()
2024-08-22 23:36:53.687   [DBG] [6ce205cd] TabbedWindowBase.internalExtractState()
2024-08-22 23:36:53.687   [DBG] [6ce205cd] TabbedWindowBase.makeStateSnapshot()
2024-08-22 23:36:53.687   [DBG] TrackEventService.setAppWindowsData()
2024-08-22 23:36:53.687   [DBG] FileBasedStorage.store()
2024-08-22 23:37:46.243   [DBG] RemoteInstanceManager.cleanSubscriptions()
2024-08-23 08:13:22.901   [WRN] Failed request to https://data.tradingview.com/ping
2024-08-23 08:16:31.458   [DBG] RemoteInstanceManager.cleanSubscriptions()
2024-08-23 08:21:31.458   [DBG] RemoteInstanceManager.cleanSubscriptions()
2024-08-23 08:26:31.459   [DBG] RemoteInstanceManager.cleanSubscriptions()
2024-08-23 08:30:13.941   [WRN] Failed request to https://data.tradingview.com/ping
2024-08-23 08:31:31.459   [DBG] RemoteInstanceManager.cleanSubscriptions()
2024-08-23 08:36:31.459   [DBG] RemoteInstanceManager.cleanSubscriptions()
2024-08-23 08:41:31.460   [DBG] RemoteInstanceManager.cleanSubscriptions()
2024-08-23 08:46:31.460   [DBG] RemoteInstanceManager.cleanSubscriptions()
2024-08-23 08:51:31.460   [DBG] RemoteInstanceManager.cleanSubscriptions()
2024-08-23 08:56:31.460   [DBG] RemoteInstanceManager.cleanSubscriptions()
2024-08-23 09:01:31.462   [DBG] RemoteInstanceManager.cleanSubscriptions()
2024-08-23 09:06:31.463   [DBG] RemoteInstanceManager.cleanSubscriptions()
2024-08-23 09:11:31.752   [DBG] RemoteInstanceManager.cleanSubscriptions()
2024-08-23 09:16:31.753   [DBG] RemoteInstanceManager.cleanSubscriptions()
2024-08-23 09:21:31.753   [DBG] RemoteInstanceManager.cleanSubscriptions()
2024-08-23 09:26:31.754   [DBG] RemoteInstanceManager.cleanSubscriptions()
2024-08-23 09:31:31.755   [DBG] RemoteInstanceManager.cleanSubscriptions()
2024-08-23 09:36:31.755   [DBG] RemoteInstanceManager.cleanSubscriptions()
2024-08-23 09:41:31.755   [DBG] RemoteInstanceManager.cleanSubscriptions()
2024-08-23 09:46:31.755   [DBG] RemoteInstanceManager.cleanSubscriptions()
2024-08-23 09:51:31.755   [DBG] RemoteInstanceManager.cleanSubscriptions()
2024-08-23 09:56:31.756   [DBG] RemoteInstanceManager.cleanSubscriptions()
2024-08-23 10:01:31.756   [DBG] RemoteInstanceManager.cleanSubscriptions()
2024-08-23 10:06:31.757   [DBG] RemoteInstanceManager.cleanSubscriptions()
2024-08-23 10:11:31.758   [DBG] RemoteInstanceManager.cleanSubscriptions()
2024-08-23 10:16:31.758   [DBG] RemoteInstanceManager.cleanSubscriptions()
2024-08-23 10:21:31.758   [DBG] RemoteInstanceManager.cleanSubscriptions()
2024-08-23 10:26:31.757   [DBG] RemoteInstanceManager.cleanSubscriptions()
2024-08-23 10:31:31.758   [DBG] RemoteInstanceManager.cleanSubscriptions()
2024-08-23 10:34:23.591   [DBG] AppEventsService.focusWebContent()
2024-08-23 10:34:29.539   [DBG] Platform requested tvd:get-theme-setting
2024-08-23 10:34:41.668   [DBG] Platform requested tvd:get-theme-setting
2024-08-23 10:34:50.79    [DBG] [c6194629] BaseWindow.processClose()
2024-08-23 10:34:50.79    [DBG] WindowService.mayClose()
2024-08-23 10:34:50.80    [DBG] [c6194629] TabbedWindowBase.willCloseWindow()
2024-08-23 10:34:50.347   [DBG] [c6194629] TabbedWindowBase.hasChartUrlWithQueryParams()
2024-08-23 10:34:50.379   [DBG] [c6194629] TabbedWindowBase.makeStateSnapshot()
2024-08-23 10:34:50.382   [DBG] [c6194629] TabbedWindowBase.showSaveChangesDialog()
2024-08-23 10:34:50.382   [DBG] TabbedWindowBase.showSaveChangesDialog():
				hasSaveDialog = false;
				mode = isWindow
2024-08-23 10:34:50.383   [DBG] P.createDialogWindow()
2024-08-23 10:34:50.455   [DBG] BaseWindow.addDisposable()
2024-08-23 10:34:50.455   [DBG] BaseWindow.applyWindowTheme()
2024-08-23 10:34:50.456   [DBG] Cu.applyTheme()
2024-08-23 10:34:50.457   [DBG] BaseWindow.addDisposable()
2024-08-23 10:34:50.459   [DBG] Dialog registered da894486
2024-08-23 10:34:50.460   [DBG] [da894486] BaseWindow.load()
2024-08-23 10:34:50.497   [DBG] [da894486] BaseWindow.createAppAwaiter()
2024-08-23 10:34:50.808   [DBG] Platform requested get-theme
2024-08-23 10:34:51.26    [DBG] [10:34:50]-[10:34:51]: 'BaseWindow: loading window page, url: '/app/dialog-window/index.html'' (564) ms
2024-08-23 10:34:51.48    [INF] Window page loaded, url: '/app/dialog-window/index.html'
2024-08-23 10:34:51.52    [DBG] [da894486] BaseWindow.show()
2024-08-23 10:34:51.73    [DBG] [da894486] BaseWindow.moveTop()
2024-08-23 10:34:51.73    [INF] [DialogWindow]: dialog without title showed
2024-08-23 10:34:51.73    [DBG] [da894486] BaseWindow.show()
2024-08-23 10:34:51.74    [DBG] [c6194629] TabbedWindowBase.saveTabsChanges()
2024-08-23 10:34:51.75    [INF] Try to save layout https://www.tradingview.com/chart/hYt84GHq/
2024-08-23 10:34:51.75    [DBG] Tab.saveChart(): tabId = 6b9b1671-e8e4-46ac-a6f0-6da41ce09e0a, url = https://www.tradingview.com/chart/hYt84GHq/, mode = isWindow
2024-08-23 10:34:51.195   [DBG] AppEventsService.focusWebContent()
2024-08-23 10:34:54.820   [INF] All changes saved in current window.
2024-08-23 10:34:54.871   [DBG] [c6194629] BaseWindow.processClose()
2024-08-23 10:34:54.871   [DBG] WindowService.mayClose()
2024-08-23 10:34:54.871   [DBG] [c6194629] TabbedWindowBase.willCloseWindow()
2024-08-23 10:34:55.61    [DBG] [c6194629] TabbedWindowBase.hasChartUrlWithQueryParams()
2024-08-23 10:34:55.69    [DBG] [c6194629] TabbedWindowBase.makeStateSnapshot()
2024-08-23 10:34:55.72    [DBG] [c6194629] TabbedWindowBase.makeStateSnapshot()
2024-08-23 10:34:55.308   [DBG] [c6194629] TabbedWindowBase.dispose()
2024-08-23 10:34:55.308   [DBG] [c6194629] s.notifyListeners()
2024-08-23 10:34:55.312   [DBG] [c6194629] TabbedWindowBase.internalExtractState()
2024-08-23 10:34:55.314   [DBG] [c6194629] TabbedWindowBase.dispose()
2024-08-23 10:34:55.314   [DBG] MainMenuService.buildAppMenu()
2024-08-23 10:34:55.324   [DBG] MainMenuService.makeThemesMenu()
2024-08-23 10:34:55.324   [DBG] Cu.availableThemes()
2024-08-23 10:34:55.351   [DBG] NativeDragService.unregister(): "Will unregister: 077d922c"
2024-08-23 10:34:55.351   [DBG] [c6194629] TabbedWindowBase.disposeTabs()
2024-08-23 10:34:55.355   [DBG] NativeDragService.unregister(): "Will unregister: d2c74e50"
2024-08-23 10:34:55.360   [DBG] LinkingService.unlink()
2024-08-23 10:34:55.362   [DBG] [c6194629] TabbedWindowBase.dispose()
2024-08-23 10:34:55.362   [DBG] [da894486] BaseWindow.dispose()
2024-08-23 10:34:55.364   [DBG] [c6194629] BaseWindow.dispose()
2024-08-23 10:34:55.374   [DBG] TabComponent.componentWillUnmount(): "Unmounting d2c74e50"
2024-08-23 10:34:55.834   [DBG] AppEventsService.focusWebContent()
2024-08-23 10:34:57.410   [DBG] AppEventsService.appQuit()
2024-08-23 10:34:57.411   [DBG] Electron.App (before-quit)
2024-08-23 10:34:57.411   [DBG] AppEventsService.beforeDeferredQuit()
2024-08-23 10:34:57.411   [DBG] WindowService.hasChartUrlWithQueryParamsInSomeWindows()
2024-08-23 10:34:57.412   [DBG] [6ce205cd] TabbedWindowBase.hasChartUrlWithQueryParams()
2024-08-23 10:34:57.412   [DBG] WindowService.checkAutoSave()
2024-08-23 10:34:57.422   [DBG] AppEventsService.autoSaveFlow()
2024-08-23 10:34:57.423   [INF] Start quit app with auto save
2024-08-23 10:34:57.423   [DBG] PersistenceService.store()
2024-08-23 10:34:57.423   [DBG] LinkingService.internalExtractState()
2024-08-23 10:34:57.423   [DBG] PersistentArrayProxy.internalExtractState()
2024-08-23 10:34:57.423   [DBG] [6ce205cd] TabbedWindowBase.internalExtractState()
2024-08-23 10:34:57.423   [DBG] [6ce205cd] TabbedWindowBase.makeStateSnapshot()
2024-08-23 10:34:57.424   [DBG] LinkingService.internalExtractState()
2024-08-23 10:34:57.424   [DBG] PersistentArrayProxy.internalExtractState()
2024-08-23 10:34:57.424   [DBG] [6ce205cd] TabbedWindowBase.internalExtractState()
2024-08-23 10:34:57.424   [DBG] [6ce205cd] TabbedWindowBase.makeStateSnapshot()
2024-08-23 10:34:57.425   [DBG] TrackEventService.setAppWindowsData()
2024-08-23 10:34:57.425   [DBG] FileBasedStorage.store()
2024-08-23 10:34:57.433   [DBG] [6ce205cd] BaseWindow.show()
2024-08-23 10:34:57.433   [DBG] WindowService.saveAllChanges()
2024-08-23 10:34:57.433   [DBG] WindowService.hasUnsavedChangesOnAllCharts()
2024-08-23 10:34:57.435   [DBG] AppEventsService.appQuit()
2024-08-23 10:34:57.435   [DBG] Electron.App (before-quit)
2024-08-23 10:34:57.435   [DBG] AppEventsService.beforeDeferredQuit()
2024-08-23 10:34:57.435   [DBG] AppEventsService.tryShutdown()
2024-08-23 10:34:57.436   [DBG] WindowService.hasUnsavedChanges()
2024-08-23 10:34:57.437   [DBG] WindowService.checkAutoSave()
2024-08-23 10:34:57.438   [DBG] PersistenceService.store()
2024-08-23 10:34:57.438   [DBG] LinkingService.internalExtractState()
2024-08-23 10:34:57.438   [DBG] PersistentArrayProxy.internalExtractState()
2024-08-23 10:34:57.438   [DBG] [6ce205cd] TabbedWindowBase.internalExtractState()
2024-08-23 10:34:57.438   [DBG] [6ce205cd] TabbedWindowBase.makeStateSnapshot()
2024-08-23 10:34:57.438   [DBG] LinkingService.internalExtractState()
2024-08-23 10:34:57.438   [DBG] PersistentArrayProxy.internalExtractState()
2024-08-23 10:34:57.438   [DBG] [6ce205cd] TabbedWindowBase.internalExtractState()
2024-08-23 10:34:57.438   [DBG] [6ce205cd] TabbedWindowBase.makeStateSnapshot()
2024-08-23 10:34:57.438   [DBG] TrackEventService.setAppWindowsData()
2024-08-23 10:34:57.438   [DBG] FileBasedStorage.store()
2024-08-23 10:34:57.439   [DBG] WindowService.getChartWindows()
2024-08-23 10:34:57.439   [DBG] WindowService.mayClose()
2024-08-23 10:34:57.439   [INF] [AppEventsService.tryShutdown()] App may close
2024-08-23 10:34:57.439   [DBG] TrackEventService.trackCloseApp()
2024-08-23 10:34:57.439   [DBG] WindowService.disposeWindows()
2024-08-23 10:34:57.442   [DBG] WindowService.disposeWindows()
2024-08-23 10:34:57.576   [DBG] [6ce205cd] TabbedWindowBase.dispose()
2024-08-23 10:34:57.576   [DBG] [6ce205cd] s.notifyListeners()
2024-08-23 10:34:57.593   [DBG] NativeDragService.unregister(): "Will unregister: f3fc5f90"
2024-08-23 10:34:57.595   [DBG] [6ce205cd] TabbedWindowBase.disposeTabs()
2024-08-23 10:34:57.598   [DBG] NativeDragService.unregister(): "Will unregister: 284a0f93"
2024-08-23 10:34:57.599   [DBG] LinkingService.unlink()
2024-08-23 10:34:57.599   [DBG] [6ce205cd] TabbedWindowBase.dispose()
2024-08-23 10:34:57.599   [DBG] [6ce205cd] BaseWindow.dispose()
2024-08-23 10:34:57.600   [DBG] WindowService.disposeDefaultWindow()
2024-08-23 10:34:57.600   [DBG] Drag service dispose
2024-08-23 10:34:57.603   [DBG] TabComponent.componentWillUnmount(): "Unmounting 284a0f93"
2024-08-23 10:34:57.723   [WRN] TrackEventService.sendEvent(event: app_quit) is not sent due to error net::ERR_CONNECTION_REFUSED
