{
    "layer": "top", // Waybar at top layer
     "position": "top", // Waybar position (top|bottom|left|right)
    "height": 30, // Waybar height (to be removed for auto height)
    // "width": 1280, // Waybar width
    "spacing": 4, // Gaps between modules (4px)
    // Choose the order of the modules
    "modules-left": ["custom/appmenu", "hyprland/workspaces", "wlr/taskbar"],
    // "modules-left": ["custom/appmenu", "hyprland/workspaces", "hyprland/mode", "hyprland/scratchpad", "custom/media"],
    "modules-center": ["hyprland/window","keyboard-state"],
    "modules-right": ["pulseaudio", "network", "cpu", "memory", "temperature", "backlight", "hyprland/language", "battery", "clock"],

    // Modules configuration
    "custom/appmenu": {
        "format": "Menu {icon}",
        "format-icon": "&#xf135;",
        "rotate": 0,
        "on-click": "wofi --show drun"
    },
    "custom/poweroff": {
            "tooltip": false,
            "format": "",
            "on-click": "wlogout"
     },
    "wlr/taskbar": {
        "format": "{icon}",
        "tooltip": true,
        "tooltip-format": "{title}",
        "on-click": "activate",
        "on-click-middle": "close",
        "active-first": true
    },
     "hyprland/workspaces": {
         "disable-scroll": true,
	 "no-click": "activate",
         "all-outputs": true,
         "warp-on-scroll": false,
         "format": "{name}: {icon}",
         "format-icons": {
             "1": "",
             "2": "",
             "3": "",
             "4": "",
             "5": "",
             "urgent": "",
             "focused": "",
             "default": ""
         }
     },
    "keyboard-state": {
        "numlock": true,
        "capslock": true,
        "format": "{name} {icon}",
        "format-icons": {
            "locked": "",
            "unlocked": ""
        }
    },
    "hyprland/window": {
        "max-length": 50,
        "separate-outputs": true
    },
    "hyprland/mode": {
        "format": "<span style=\"italic\">{}</span>"
    },
    "hyprland/scratchpad": {
        "format": "{icon} {count}",
        "show-empty": false,
        "format-icons": ["", ""],
        "tooltip": true,
        "tooltip-format": "{app}: {title}"
    },
    "mpd": {
        "format": "{stateIcon} {consumeIcon}{randomIcon}{repeatIcon}{singleIcon}{artist} - {album} - {title} ({elapsedTime:%M:%S}/{totalTime:%M:%S}) ⸨{songPosition}|{queueLength}⸩ {volume}% ",
        "format-disconnected": "Disconnected ",
        "format-stopped": "{consumeIcon}{randomIcon}{repeatIcon}{singleIcon}Stopped ",
        "unknown-tag": "N/A",
        "interval": 2,
        "consume-icons": {
            "on": " "
        },
        "random-icons": {
            "off": "<span color=\"#f53c3c\"></span> ",
            "on": " "
        },
        "repeat-icons": {
            "on": " "
        },
        "single-icons": {
            "on": "1 "
        },
        "state-icons": {
            "paused": "",
            "playing": ""
        },
        "tooltip-format": "MPD (connected)",
        "tooltip-format-disconnected": "MPD (disconnected)"
    },
    "idle_inhibitor": {
        "format": "{icon}",
        "format-icons": {
            "activated": "",
            "deactivated": ""
        }
    },
    "tray": {
        "icon-size": 21,
        "spacing": 10
    },
    "clock": {
        "format": "{:%I:%M %p}",
        "rotate": 0,
        "format-alt": "{:%a, %d %b %H:%M}",
        // "tooltip-format": "<big>{:%Y %B}</big>\n<tt><small>{calendar}</small></tt>",
        "tooltip-format": "<span>{calendar}</span>",
        // "format-alt": "{:%Y-%m-%d}"
        "calendar": {
            "mode": "month",
            "format":{
                "months": "<span color='#ff6699'><b>{}</b></span>",
                "days": "<span color='#cdd6f4'><b>{}</b></span>",
                "weekdays": "<span color='#7CD37C'><b>{}</b></span>",
                "today": "<span color='#ffcc66'><b>{}</b></span>"
            }
        }
    },
    "cpu": {
        "format": "{usage}% ",
        "tooltip": false
    },
    "memory": {
        "format": "{}% "
    },
    "temperature": {
        // "thermal-zone": 2,
        // "hwmon-path": "/sys/class/hwmon/hwmon2/temp1_input",
        "critical-threshold": 80,
        // "format-critical": "{temperatureC}°C {icon}",
        "format": "{temperatureC}°C {icon}",
        "format-icons": ["", "", ""]
    },
    "backlight": {
        // "device": "acpi_video1",
        "format": "{percent}% {icon}",
        "format-icons": ["", "", "", "", "", "", "", "", ""]
    },
    "battery": {
        "states": {
            // "good": 95,
            "warning": 30,
            "critical": 15
        },
        "format": "{capacity}% {icon}",
        "format-charging": "{capacity}% ",
        "format-plugged": "{capacity}% ",
        "format-alt": "{time} {icon}",
        // "format-good": "", // An empty format will hide the module
        // "format-full": "",
        "format-icons": ["", "", "", "", ""]
    },
    // "battery#bat2": {
    //     "bat": "BAT2"
    // },
    "network": {
        "tooltip": true,
        "rotate": 0,
        // "interface": "wlp2*", // (Optional) To force the use of this interface
        "format-wifi": "{essid} ({signalStrength}%) ",
        "format-ethernet": "{ipaddr}/{cidr}  ",
        // "tooltip-format": "{ifname} via {gwaddr}  ",
        "tooltip-format": "Network: <big><b>{essid}</b></big>\nSignal strength: <b>{signaldBm}dBm ({signalStrength}%)</b>\nFrequency: <b>{frequency}Mhz</b>\nInterface: <b>{ifname}</b>",
        "format-linked": "{ifname} (No IP)  ",
        "format-disconnected": "Disconnected ⚠",
        "tooltip-format-disconnected": "Disconnected ⚠",
        // "format-alt": "{ifname}: {ipaddr}/{cidr}"
        "format-alt": "<span foreground='#99ffdd'>&#xf019; {bandwidthDownBytes}</span> <span foreground='#ffcc66'>&#xf093; {bandwidthUpBytes}</span>",
        "interval": 5
    },
    "pulseaudio": {
        // "scroll-step": 1, // %, can be a float
        "format": "{volume}% {icon} {format_source}",
        "format-bluetooth": "{volume}% {icon} {format_source}",
        "format-bluetooth-muted": " {icon} {format_source}",
        "format-muted": " {format_source}",
        "format-source": "{volume}% ",
        "format-source-muted": "",
        "format-icons": {
            "headphone": "",
            "hands-free": "",
            "headset": "",
            "phone": "",
            "portable": "",
            "car": "",
            "default": ["", "", ""]
        },
        "on-click": "pavucontrol"
    },
    // "custom/media": {
    //     "format": "{icon} {}",
    //     "return-type": "json",
    //     "max-length": 40,
    //     "format-icons": {
    //         "spotify": "",
    //         "default": "🎜"
    //     },
    //     "escape": true,
    //     "exec": "$HOME/.config/waybar/mediaplayer.py 2> /dev/null" // Script in resources folder
    //     // "exec": "$HOME/.config/waybar/mediaplayer.py --player spotify 2> /dev/null" // Filter player based on name
    //
}
